sample/FIFOTest/wave2.vcd
$date
	Thu Dec 22 15:21:51 2016
$end
$version
	Icarus Verilog
$end
$timescale
	1ps
$end
$scope module testbench $end
$var wire 1 ! o_run_busy $end
$var reg 1 " ce $end
$var reg 1 # clock $end
$var reg 32 $ counter [31:0] $end
$var reg 1 % i_run_req $end
$var reg 1 & reset_n $end
$scope module uut1 $end
$var wire 1 ' ce $end
$var wire 1 ( clock $end
$var wire 1 ) i_run_req $end
$var wire 1 ! o_run_busy $end
$var wire 32 * o_run_return [31:0] $end
$var wire 1 + reset_n $end
$var wire 4 , w_fld_arrayA_1_addr_0 [3:0] $end
$var wire 1 - w_fld_arrayA_1_ce_0 $end
$var wire 1 . w_fld_arrayA_1_ce_1 $end
$var wire 32 / w_fld_arrayA_1_datain_0 [31:0] $end
$var wire 32 0 w_fld_arrayA_1_dataout_0 [31:0] $end
$var wire 32 1 w_fld_arrayA_1_dataout_1 [31:0] $end
$var wire 1 2 w_fld_arrayA_1_r_w_0 $end
$var wire 1 3 w_obj_check_finished_busy $end
$var wire 1 4 w_obj_check_finished_return $end
$var wire 1 5 w_obj_deque_busy $end
$var wire 32 6 w_obj_deque_return [31:0] $end
$var wire 1 7 w_obj_enque_busy $end
$var wire 1 8 w_obj_is_finished_busy $end
$var wire 1 9 w_sys_boolFalse $end
$var wire 1 : w_sys_boolTrue $end
$var wire 1 ; w_sys_ce $end
$var wire 32 < w_sys_intOne [31:0] $end
$var wire 32 = w_sys_intZero [31:0] $end
$var wire 2 > w_sys_run_stage_p1 [1:0] $end
$var wire 3 ? w_sys_run_step_p1 [2:0] $end
$var wire 1 @ w_sys_tmp1 $end
$var wire 32 A w_sys_tmp10 [31:0] $end
$var wire 1 B w_sys_tmp11 $end
$var wire 32 C w_sys_tmp12 [31:0] $end
$var wire 32 D w_sys_tmp15 [31:0] $end
$var wire 1 E w_sys_tmp16 $end
$var wire 32 F w_sys_tmp17 [31:0] $end
$var wire 32 G w_sys_tmp19 [31:0] $end
$var wire 32 H w_sys_tmp2 [31:0] $end
$var wire 32 I w_sys_tmp20 [31:0] $end
$var wire 32 J w_sys_tmp21 [31:0] $end
$var wire 32 K w_sys_tmp22 [31:0] $end
$var wire 32 L w_sys_tmp5 [31:0] $end
$var wire 1 M w_sys_tmp6 $end
$var wire 32 N w_sys_tmp7 [31:0] $end
$var wire 32 O w_sys_tmp9 [31:0] $end
$var reg 4 P r_fld_arrayA_1_addr_1 [3:0] $end
$var reg 32 Q r_fld_arrayA_1_datain_1 [31:0] $end
$var reg 1 R r_fld_arrayA_1_r_w_1 $end
$var reg 1 S r_obj_check_finished_req $end
$var reg 1 T r_obj_deque_req $end
$var reg 32 U r_obj_enque_n_in [31:0] $end
$var reg 1 V r_obj_enque_req $end
$var reg 1 W r_obj_is_finished_in_finished $end
$var reg 1 X r_obj_is_finished_req $end
$var reg 32 Y r_run_i_2 [31:0] $end
$var reg 32 Z r_run_result_3 [31:0] $end
$var reg 2 [ r_sys_processing_methodID [1:0] $end
$var reg 1 \ r_sys_run_busy $end
$var reg 2 ] r_sys_run_caller [1:0] $end
$var reg 5 ^ r_sys_run_phase [4:0] $end
$var reg 1 _ r_sys_run_req $end
$var reg 32 ` r_sys_run_return [31:0] $end
$var reg 2 a r_sys_run_stage [1:0] $end
$var reg 3 b r_sys_run_step [2:0] $end
$scope module obj_inst $end
$var wire 1 ' ce $end
$var wire 1 ( clock $end
$var wire 1 c i_check_finished_req $end
$var wire 1 d i_deque_req $end
$var wire 32 e i_enque_n_in_5 [31:0] $end
$var wire 1 f i_enque_req $end
$var wire 1 g i_is_finished_in_finished_4 $end
$var wire 1 h i_is_finished_req $end
$var wire 1 3 o_check_finished_busy $end
$var wire 1 4 o_check_finished_return $end
$var wire 1 5 o_deque_busy $end
$var wire 32 i o_deque_return [31:0] $end
$var wire 1 7 o_enque_busy $end
$var wire 1 8 o_is_finished_busy $end
$var wire 1 + reset_n $end
$var wire 4 j w_fld_buffer_0_addr_0 [3:0] $end
$var wire 1 k w_fld_buffer_0_ce_0 $end
$var wire 1 l w_fld_buffer_0_ce_1 $end
$var wire 32 m w_fld_buffer_0_datain_0 [31:0] $end
$var wire 32 n w_fld_buffer_0_dataout_0 [31:0] $end
$var wire 32 o w_fld_buffer_0_dataout_1 [31:0] $end
$var wire 1 p w_fld_buffer_0_r_w_0 $end
$var wire 1 q w_sys_boolFalse $end
$var wire 1 r w_sys_boolTrue $end
$var wire 1 s w_sys_ce $end
$var wire 2 t w_sys_check_finished_stage_p1 [1:0] $end
$var wire 2 u w_sys_check_finished_step_p1 [1:0] $end
$var wire 2 v w_sys_deque_stage_p1 [1:0] $end
$var wire 3 w w_sys_deque_step_p1 [2:0] $end
$var wire 2 x w_sys_enque_stage_p1 [1:0] $end
$var wire 2 y w_sys_enque_step_p1 [1:0] $end
$var wire 32 z w_sys_intOne [31:0] $end
$var wire 32 { w_sys_intZero [31:0] $end
$var wire 2 | w_sys_is_finished_stage_p1 [1:0] $end
$var wire 2 } w_sys_is_finished_step_p1 [1:0] $end
$var wire 1 ~ w_sys_tmp1 $end
$var wire 1 !" w_sys_tmp2 $end
$var wire 32 "" w_sys_tmp4 [31:0] $end
$var wire 32 #" w_sys_tmp5 [31:0] $end
$var wire 32 $" w_sys_tmp6 [31:0] $end
$var wire 32 %" w_sys_tmp7 [31:0] $end
$var reg 32 &" r_deque_n_out_6 [31:0] $end
$var reg 32 '" r_enque_n_in_5 [31:0] $end
$var reg 4 (" r_fld_buffer_0_addr_1 [3:0] $end
$var reg 32 )" r_fld_buffer_0_datain_1 [31:0] $end
$var reg 1 *" r_fld_buffer_0_r_w_1 $end
$var reg 32 +" r_fld_front_1 [31:0] $end
$var reg 1 ," r_fld_is_finished_3 $end
$var reg 32 -" r_fld_rear_2 [31:0] $end
$var reg 1 ." r_is_finished_in_finished_4 $end
$var reg 1 /" r_sys_check_finished_busy $end
$var reg 3 0" r_sys_check_finished_caller [2:0] $end
$var reg 3 1" r_sys_check_finished_phase [2:0] $end
$var reg 1 2" r_sys_check_finished_req $end
$var reg 1 3" r_sys_check_finished_return $end
$var reg 2 4" r_sys_check_finished_stage [1:0] $end
$var reg 2 5" r_sys_check_finished_step [1:0] $end
$var reg 1 6" r_sys_deque_busy $end
$var reg 3 7" r_sys_deque_caller [2:0] $end
$var reg 3 8" r_sys_deque_phase [2:0] $end
$var reg 1 9" r_sys_deque_req $end
$var reg 32 :" r_sys_deque_return [31:0] $end
$var reg 2 ;" r_sys_deque_stage [1:0] $end
$var reg 3 <" r_sys_deque_step [2:0] $end
$var reg 1 =" r_sys_enque_busy $end
$var reg 3 >" r_sys_enque_caller [2:0] $end
$var reg 3 ?" r_sys_enque_phase [2:0] $end
$var reg 1 @" r_sys_enque_req $end
$var reg 2 A" r_sys_enque_stage [1:0] $end
$var reg 2 B" r_sys_enque_step [1:0] $end
$var reg 1 C" r_sys_is_finished_busy $end
$var reg 3 D" r_sys_is_finished_caller [2:0] $end
$var reg 3 E" r_sys_is_finished_phase [2:0] $end
$var reg 1 F" r_sys_is_finished_req $end
$var reg 2 G" r_sys_is_finished_stage [1:0] $end
$var reg 2 H" r_sys_is_finished_step [1:0] $end
$var reg 3 I" r_sys_processing_methodID [2:0] $end
$scope module dpram_buffer_0 $end
$var wire 4 J" addr_0 [3:0] $end
$var wire 4 K" addr_1 [3:0] $end
$var wire 1 k ce_0 $end
$var wire 1 l ce_1 $end
$var wire 1 ( clk $end
$var wire 32 L" datain_0 [31:0] $end
$var wire 32 M" datain_1 [31:0] $end
$var wire 32 N" dataout_0 [31:0] $end
$var wire 32 O" dataout_1 [31:0] $end
$var wire 1 p r_w_0 $end
$var wire 1 P" r_w_1 $end
$var reg 32 Q" r_dataout_0 [31:0] $end
$var reg 32 R" r_dataout_1 [31:0] $end
$upscope $end
$upscope $end
$scope module dpram_arrayA_1 $end
$var wire 4 S" addr_0 [3:0] $end
$var wire 4 T" addr_1 [3:0] $end
$var wire 1 - ce_0 $end
$var wire 1 . ce_1 $end
$var wire 1 ( clk $end
$var wire 32 U" datain_0 [31:0] $end
$var wire 32 V" datain_1 [31:0] $end
$var wire 32 W" dataout_0 [31:0] $end
$var wire 32 X" dataout_1 [31:0] $end
$var wire 1 2 r_w_0 $end
$var wire 1 Y" r_w_1 $end
$var reg 32 Z" r_dataout_0 [31:0] $end
$var reg 32 [" r_dataout_1 [31:0] $end
$upscope $end
$upscope $end
$upscope $end
$enddefinitions $end
#0
$dumpvars
bx ["
bx Z"
xY"
bx X"
bx W"
bx V"
b0 U"
bx T"
b0 S"
bx R"
bx Q"
xP"
bx O"
bx N"
bx M"
b0 L"
bx K"
b0 J"
bx I"
bx H"
bx G"
xF"
bx E"
bx D"
xC"
bx B"
bx A"
x@"
bx ?"
bx >"
x="
bx <"
bx ;"
bx :"
x9"
bx 8"
bx 7"
x6"
bx 5"
bx 4"
x3"
x2"
bx 1"
bx 0"
x/"
x."
bx -"
x,"
bx +"
x*"
bx )"
bx ("
bx '"
bx &"
bx %"
bx $"
bx #"
bx ""
x!"
x~
bx }
bx |
b0 {
b1 z
bx y
bx x
bx w
bx v
bx u
bx t
0s
1r
0q
0p
bx o
bx n
b0 m
0l
0k
b0 j
bx i
xh
xg
xf
bx e
xd
xc
bx b
bx a
bx `
x_
bx ^
bx ]
x\
bx [
bx Z
bx Y
xX
xW
xV
bx U
xT
xS
xR
bx Q
bx P
bx O
b1010 N
xM
bx L
bx K
bx J
bx I
b1010 H
bx G
b1010 F
xE
bx D
b1010 C
xB
bx A
x@
bx ?
bx >
b0 =
b1 <
0;
1:
09
x8
x7
bx 6
x5
x4
x3
02
bx 1
bx 0
b0 /
0.
0-
b0 ,
0+
bx *
0)
0(
0'
0&
0%
b0 $
0#
0"
x!
$end
#5000
b0 I"
b0 D"
0F"
b0 E"
b0 G"
b1 |
b0 H"
b1 }
0C"
08
03"
04
b0 0"
02"
b0 1"
b0 4"
b1 t
b0 5"
b1 u
0/"
03
b0 >"
0@"
b0 ?"
b0 A"
b1 x
b0 B"
b1 y
0="
07
b0 :"
b0 6
b0 i
b0 7"
09"
b0 8"
b0 ;"
b1 v
b0 <"
b1 w
06"
05
b0 ("
b0 K"
0*"
0P"
b0 +"
b1 $"
b0 -"
b1 ""
0,"
0!"
b0 [
b0 `
b0 *
b0 ]
0_
b0 ^
b0 a
b1 >
b0 b
b1 ?
0\
0!
b0 P
b0 T"
0R
0Y"
0X
0h
0S
0c
0V
0f
0T
0d
b1 $
1#
1(
#10000
0#
0(
#15000
b10 $
1#
1(
#20000
0#
0(
#25000
b11 $
1#
1(
#30000
0#
0(
#35000
b100 $
1#
1(
#40000
0#
0(
#45000
b101 $
1#
1(
#50000
0#
0(
#55000
b110 $
1#
1(
#60000
0#
0(
#65000
b111 $
1#
1(
#70000
0#
0(
#75000
b1000 $
1#
1(
#80000
0#
0(
#85000
b1001 $
1#
1(
#90000
0#
0(
#95000
b1010 $
1#
1(
#100000
0#
0(
#105000
b1011 $
1-
1.
1;
1k
1l
1s
1%
1)
1"
1'
1&
1+
1#
1(
#110000
0#
0(
#115000
b1100 $
1\
1!
b1 [
0%
0)
1#
1(
#120000
0#
0(
#125000
b10 ^
b1101 $
1#
1(
#130000
0#
0(
#135000
b1110 $
b0 Z
b0 K
b100 ^
1#
1(
#140000
0#
0(
#145000
b101 ^
b0 Y
1@
b1 L
1M
b1 A
1B
b1 D
1E
b1 J
b1111 $
1#
1(
#150000
0#
0(
#155000
b10000 $
b1000 ^
1#
1(
#160000
0#
0(
#165000
b101 ^
b0 Q
b0 V"
1R
1Y"
b1 Y
b10 L
b10 A
b10 D
b10 J
b10001 $
1#
1(
#170000
0#
0(
#175000
b10010 $
b1000 ^
1#
1(
#180000
0#
0(
#185000
b0 Z"
b0 0
b0 W"
b0 ["
b0 1
b0 X"
b0 I
b0 G
b0 O
b101 ^
b1 P
b1 T"
b1 Q
b1 V"
b10 Y
b11 L
b11 A
b11 D
b11 J
b10011 $
1#
1(
#190000
0#
0(
#195000
b10100 $
b1000 ^
bx ["
bx 1
bx X"
bx I
bx G
bx O
1#
1(
#200000
0#
0(
#205000
b1 ["
b1 1
b1 X"
b1 I
b1 G
b1 O
b101 ^
b10 P
b10 T"
b10 Q
b10 V"
b11 Y
b100 L
b100 A
b100 D
b100 J
b10101 $
1#
1(
#210000
0#
0(
#215000
b10110 $
b1000 ^
bx ["
bx 1
bx X"
bx I
bx G
bx O
1#
1(
#220000
0#
0(
#225000
b10 ["
b10 1
b10 X"
b10 I
b10 G
b10 O
b101 ^
b11 P
b11 T"
b11 Q
b11 V"
b100 Y
b101 L
b101 A
b101 D
b101 J
b10111 $
1#
1(
#230000
0#
0(
#235000
b11000 $
b1000 ^
bx ["
bx 1
bx X"
bx I
bx G
bx O
1#
1(
#240000
0#
0(
#245000
b11 ["
b11 1
b11 X"
b11 I
b11 G
b11 O
b101 ^
b100 P
b100 T"
b100 Q
b100 V"
b101 Y
b110 L
b110 A
b110 D
b110 J
b11001 $
1#
1(
#250000
0#
0(
#255000
b11010 $
b1000 ^
bx ["
bx 1
bx X"
bx I
bx G
bx O
1#
1(
#260000
0#
0(
#265000
b100 ["
b100 1
b100 X"
b100 I
b100 G
b100 O
b101 ^
b101 P
b101 T"
b101 Q
b101 V"
b110 Y
b111 L
b111 A
b111 D
b111 J
b11011 $
1#
1(
#270000
0#
0(
#275000
b11100 $
b1000 ^
bx ["
bx 1
bx X"
bx I
bx G
bx O
1#
1(
#280000
0#
0(
#285000
b101 ["
b101 1
b101 X"
b101 I
b101 G
b101 O
b101 ^
b110 P
b110 T"
b110 Q
b110 V"
b111 Y
b1000 L
b1000 A
b1000 D
b1000 J
b11101 $
1#
1(
#290000
0#
0(
#295000
b11110 $
b1000 ^
bx ["
bx 1
bx X"
bx I
bx G
bx O
1#
1(
#300000
0#
0(
#305000
b110 ["
b110 1
b110 X"
b110 I
b110 G
b110 O
b101 ^
b111 P
b111 T"
b111 Q
b111 V"
b1000 Y
b1001 L
b1001 A
b1001 D
b1001 J
b11111 $
1#
1(
#310000
0#
0(
#315000
b100000 $
b1000 ^
bx ["
bx 1
bx X"
bx I
bx G
bx O
1#
1(
#320000
0#
0(
#325000
b111 ["
b111 1
b111 X"
b111 I
b111 G
b111 O
b101 ^
b1000 P
b1000 T"
b1000 Q
b1000 V"
b1001 Y
b1010 L
b1010 A
b1010 D
b1010 J
b100001 $
1#
1(
#330000
0#
0(
#335000
b100010 $
b1000 ^
bx ["
bx 1
bx X"
bx I
bx G
bx O
1#
1(
#340000
0#
0(
#345000
b1000 ["
b1000 1
b1000 X"
b1000 I
b1000 G
b1000 O
b101 ^
b1001 P
b1001 T"
b1001 Q
b1001 V"
b1010 Y
0@
b1011 L
0M
b1011 A
0B
b1011 D
0E
b1011 J
b100011 $
1#
1(
#350000
0#
0(
#355000
b100100 $
b1010 ^
bx ["
bx 1
bx X"
bx I
bx G
bx O
1#
1(
#360000
0#
0(
#365000
b1001 ["
b1001 1
b1001 X"
b1001 I
b1001 G
b1001 O
b1011 ^
b0 Y
1@
b1 L
1M
b1 A
1B
b1 D
1E
b1 J
b100101 $
1#
1(
#370000
0#
0(
#375000
b100110 $
b1110 ^
1#
1(
#380000
0#
0(
#385000
b1 b
b10 ?
b0 P
b0 T"
0R
0Y"
b100111 $
1#
1(
#390000
0#
0(
#395000
b101000 $
b10 b
b11 ?
b0 ["
b0 1
b0 X"
b0 I
b0 G
b0 O
1#
1(
#400000
0#
0(
#405000
b11 b
b100 ?
1V
1f
b0 U
b0 e
b101001 $
1#
1(
#410000
0#
0(
#415000
b101010 $
0V
0f
b100 b
b101 ?
b0 '"
1="
17
b11 I"
1#
1(
#420000
0#
0(
#425000
b10 ?"
b101011 $
1#
1(
#430000
0#
0(
#435000
b101100 $
b1 -"
b10 ""
1*"
1P"
b0 )"
b0 M"
b100 ?"
1#
1(
#440000
0#
0(
#445000
b0 I"
b0 ?"
0="
07
0*"
0P"
b101101 $
1#
1(
#450000
0#
0(
#455000
b101110 $
b101 b
b110 ?
b0 R"
b0 o
b0 O"
b0 #"
b0 Q"
b0 n
b0 N"
1#
1(
#460000
0#
0(
#465000
b1 a
b10 >
b0 b
b1 ?
b101111 $
1#
1(
#470000
0#
0(
#475000
b110000 $
b1 Y
b10 L
b10 A
b10 D
b10 J
b0 a
b1 >
b1011 ^
1#
1(
#480000
0#
0(
#485000
b1110 ^
b110001 $
1#
1(
#490000
0#
0(
#495000
b110010 $
b1 P
b1 T"
b1 b
b10 ?
1#
1(
#500000
0#
0(
#505000
b1 ["
b1 1
b1 X"
b1 I
b1 G
b1 O
b10 b
b11 ?
b110011 $
1#
1(
#510000
0#
0(
#515000
b110100 $
b1 U
b1 e
1V
1f
b11 b
b100 ?
1#
1(
#520000
0#
0(
#525000
b11 I"
1="
17
b1 '"
b100 b
b101 ?
0V
0f
b110101 $
1#
1(
#530000
0#
0(
#535000
b110110 $
b10 ?"
1#
1(
#540000
0#
0(
#545000
b100 ?"
b1 ("
b1 K"
b1 )"
b1 M"
1*"
1P"
b10 -"
b11 ""
b110111 $
1#
1(
#550000
0#
0(
#555000
b111000 $
0*"
0P"
0="
07
b0 ?"
b0 I"
bx R"
bx o
bx O"
bx #"
1#
1(
#560000
0#
0(
#565000
b1 R"
b1 o
b1 O"
b1 #"
b101 b
b110 ?
b111001 $
1#
1(
#570000
0#
0(
#575000
b111010 $
b0 b
b1 ?
b1 a
b10 >
1#
1(
#580000
0#
0(
#585000
b1011 ^
b0 a
b1 >
b10 Y
b11 L
b11 A
b11 D
b11 J
b111011 $
1#
1(
#590000
0#
0(
#595000
b111100 $
b1110 ^
1#
1(
#600000
0#
0(
#605000
b1 b
b10 ?
b10 P
b10 T"
b111101 $
1#
1(
#610000
0#
0(
#615000
b111110 $
b10 b
b11 ?
b10 ["
b10 1
b10 X"
b10 I
b10 G
b10 O
1#
1(
#620000
0#
0(
#625000
b11 b
b100 ?
1V
1f
b10 U
b10 e
b111111 $
1#
1(
#630000
0#
0(
#635000
b1000000 $
0V
0f
b100 b
b101 ?
b10 '"
1="
17
b11 I"
1#
1(
#640000
0#
0(
#645000
b10 ?"
b1000001 $
1#
1(
#650000
0#
0(
#655000
b1000010 $
b11 -"
b100 ""
1*"
1P"
b10 )"
b10 M"
b10 ("
b10 K"
b100 ?"
1#
1(
#660000
0#
0(
#665000
bx R"
bx o
bx O"
bx #"
b0 I"
b0 ?"
0="
07
0*"
0P"
b1000011 $
1#
1(
#670000
0#
0(
#675000
b1000100 $
b101 b
b110 ?
b10 R"
b10 o
b10 O"
b10 #"
1#
1(
#680000
0#
0(
#685000
b1 a
b10 >
b0 b
b1 ?
b1000101 $
1#
1(
#690000
0#
0(
#695000
b1000110 $
b11 Y
b100 L
b100 A
b100 D
b100 J
b0 a
b1 >
b1011 ^
1#
1(
#700000
0#
0(
#705000
b1110 ^
b1000111 $
1#
1(
#710000
0#
0(
#715000
b1001000 $
b11 P
b11 T"
b1 b
b10 ?
1#
1(
#720000
0#
0(
#725000
b11 ["
b11 1
b11 X"
b11 I
b11 G
b11 O
b10 b
b11 ?
b1001001 $
1#
1(
#730000
0#
0(
#735000
b1001010 $
b11 U
b11 e
1V
1f
b11 b
b100 ?
1#
1(
#740000
0#
0(
#745000
b11 I"
1="
17
b11 '"
b100 b
b101 ?
0V
0f
b1001011 $
1#
1(
#750000
0#
0(
#755000
b1001100 $
b10 ?"
1#
1(
#760000
0#
0(
#765000
b100 ?"
b11 ("
b11 K"
b11 )"
b11 M"
1*"
1P"
b100 -"
b101 ""
b1001101 $
1#
1(
#770000
0#
0(
#775000
b1001110 $
0*"
0P"
0="
07
b0 ?"
b0 I"
bx R"
bx o
bx O"
bx #"
1#
1(
#780000
0#
0(
#785000
b11 R"
b11 o
b11 O"
b11 #"
b101 b
b110 ?
b1001111 $
1#
1(
#790000
0#
0(
#795000
b1010000 $
b0 b
b1 ?
b1 a
b10 >
1#
1(
#800000
0#
0(
#805000
b1011 ^
b0 a
b1 >
b100 Y
b101 L
b101 A
b101 D
b101 J
b1010001 $
1#
1(
#810000
0#
0(
#815000
b1010010 $
b1110 ^
1#
1(
#820000
0#
0(
#825000
b1 b
b10 ?
b100 P
b100 T"
b1010011 $
1#
1(
#830000
0#
0(
#835000
b1010100 $
b10 b
b11 ?
b100 ["
b100 1
b100 X"
b100 I
b100 G
b100 O
1#
1(
#840000
0#
0(
#845000
b11 b
b100 ?
1V
1f
b100 U
b100 e
b1010101 $
1#
1(
#850000
0#
0(
#855000
b1010110 $
0V
0f
b100 b
b101 ?
b100 '"
1="
17
b11 I"
1#
1(
#860000
0#
0(
#865000
b10 ?"
b1010111 $
1#
1(
#870000
0#
0(
#875000
b1011000 $
b101 -"
b110 ""
1*"
1P"
b100 )"
b100 M"
b100 ("
b100 K"
b100 ?"
1#
1(
#880000
0#
0(
#885000
bx R"
bx o
bx O"
bx #"
b0 I"
b0 ?"
0="
07
0*"
0P"
b1011001 $
1#
1(
#890000
0#
0(
#895000
b1011010 $
b101 b
b110 ?
b100 R"
b100 o
b100 O"
b100 #"
1#
1(
#900000
0#
0(
#905000
b1 a
b10 >
b0 b
b1 ?
b1011011 $
1#
1(
#910000
0#
0(
#915000
b1011100 $
b101 Y
b110 L
b110 A
b110 D
b110 J
b0 a
b1 >
b1011 ^
1#
1(
#920000
0#
0(
#925000
b1110 ^
b1011101 $
1#
1(
#930000
0#
0(
#935000
b1011110 $
b101 P
b101 T"
b1 b
b10 ?
1#
1(
#940000
0#
0(
#945000
b101 ["
b101 1
b101 X"
b101 I
b101 G
b101 O
b10 b
b11 ?
b1011111 $
1#
1(
#950000
0#
0(
#955000
b1100000 $
b101 U
b101 e
1V
1f
b11 b
b100 ?
1#
1(
#960000
0#
0(
#965000
b11 I"
1="
17
b101 '"
b100 b
b101 ?
0V
0f
b1100001 $
1#
1(
#970000
0#
0(
#975000
b1100010 $
b10 ?"
1#
1(
#980000
0#
0(
#985000
b100 ?"
b101 ("
b101 K"
b101 )"
b101 M"
1*"
1P"
b110 -"
b111 ""
b1100011 $
1#
1(
#990000
0#
0(
#995000
b1100100 $
0*"
0P"
0="
07
b0 ?"
b0 I"
bx R"
bx o
bx O"
bx #"
1#
1(
#1000000
0#
0(
#1005000
b101 R"
b101 o
b101 O"
b101 #"
b101 b
b110 ?
b1100101 $
1#
1(
#1010000
0#
0(
#1015000
b1100110 $
b0 b
b1 ?
b1 a
b10 >
1#
1(
#1020000
0#
0(
#1025000
b1011 ^
b0 a
b1 >
b110 Y
b111 L
b111 A
b111 D
b111 J
b1100111 $
1#
1(
#1030000
0#
0(
#1035000
b1101000 $
b1110 ^
1#
1(
#1040000
0#
0(
#1045000
b1 b
b10 ?
b110 P
b110 T"
b1101001 $
1#
1(
#1050000
0#
0(
#1055000
b1101010 $
b10 b
b11 ?
b110 ["
b110 1
b110 X"
b110 I
b110 G
b110 O
1#
1(
#1060000
0#
0(
#1065000
b11 b
b100 ?
1V
1f
b110 U
b110 e
b1101011 $
1#
1(
#1070000
0#
0(
#1075000
b1101100 $
0V
0f
b100 b
b101 ?
b110 '"
1="
17
b11 I"
1#
1(
#1080000
0#
0(
#1085000
b10 ?"
b1101101 $
1#
1(
#1090000
0#
0(
#1095000
b1101110 $
b111 -"
b1000 ""
1*"
1P"
b110 )"
b110 M"
b110 ("
b110 K"
b100 ?"
1#
1(
#1100000
0#
0(
#1105000
bx R"
bx o
bx O"
bx #"
b0 I"
b0 ?"
0="
07
0*"
0P"
b1101111 $
1#
1(
#1110000
0#
0(
#1115000
b1110000 $
b101 b
b110 ?
b110 R"
b110 o
b110 O"
b110 #"
1#
1(
#1120000
0#
0(
#1125000
b1 a
b10 >
b0 b
b1 ?
b1110001 $
1#
1(
#1130000
0#
0(
#1135000
b1110010 $
b111 Y
b1000 L
b1000 A
b1000 D
b1000 J
b0 a
b1 >
b1011 ^
1#
1(
#1140000
0#
0(
#1145000
b1110 ^
b1110011 $
1#
1(
#1150000
0#
0(
#1155000
b1110100 $
b111 P
b111 T"
b1 b
b10 ?
1#
1(
#1160000
0#
0(
#1165000
b111 ["
b111 1
b111 X"
b111 I
b111 G
b111 O
b10 b
b11 ?
b1110101 $
1#
1(
#1170000
0#
0(
#1175000
b1110110 $
b111 U
b111 e
1V
1f
b11 b
b100 ?
1#
1(
#1180000
0#
0(
#1185000
b11 I"
1="
17
b111 '"
b100 b
b101 ?
0V
0f
b1110111 $
1#
1(
#1190000
0#
0(
#1195000
b1111000 $
b10 ?"
1#
1(
#1200000
0#
0(
#1205000
b100 ?"
b111 ("
b111 K"
b111 )"
b111 M"
1*"
1P"
b1000 -"
b1001 ""
b1111001 $
1#
1(
#1210000
0#
0(
#1215000
b1111010 $
0*"
0P"
0="
07
b0 ?"
b0 I"
bx R"
bx o
bx O"
bx #"
1#
1(
#1220000
0#
0(
#1225000
b111 R"
b111 o
b111 O"
b111 #"
b101 b
b110 ?
b1111011 $
1#
1(
#1230000
0#
0(
#1235000
b1111100 $
b0 b
b1 ?
b1 a
b10 >
1#
1(
#1240000
0#
0(
#1245000
b1011 ^
b0 a
b1 >
b1000 Y
b1001 L
b1001 A
b1001 D
b1001 J
b1111101 $
1#
1(
#1250000
0#
0(
#1255000
b1111110 $
b1110 ^
1#
1(
#1260000
0#
0(
#1265000
b1 b
b10 ?
b1000 P
b1000 T"
b1111111 $
1#
1(
#1270000
0#
0(
#1275000
b10000000 $
b10 b
b11 ?
b1000 ["
b1000 1
b1000 X"
b1000 I
b1000 G
b1000 O
1#
1(
#1280000
0#
0(
#1285000
b11 b
b100 ?
1V
1f
b1000 U
b1000 e
b10000001 $
1#
1(
#1290000
0#
0(
#1295000
b10000010 $
0V
0f
b100 b
b101 ?
b1000 '"
1="
17
b11 I"
1#
1(
#1300000
0#
0(
#1305000
b10 ?"
b10000011 $
1#
1(
#1310000
0#
0(
#1315000
b10000100 $
b1001 -"
b1010 ""
1*"
1P"
b1000 )"
b1000 M"
b1000 ("
b1000 K"
b100 ?"
1#
1(
#1320000
0#
0(
#1325000
bx R"
bx o
bx O"
bx #"
b0 I"
b0 ?"
0="
07
0*"
0P"
b10000101 $
1#
1(
#1330000
0#
0(
#1335000
b10000110 $
b101 b
b110 ?
b1000 R"
b1000 o
b1000 O"
b1000 #"
1#
1(
#1340000
0#
0(
#1345000
b1 a
b10 >
b0 b
b1 ?
b10000111 $
1#
1(
#1350000
0#
0(
#1355000
b10001000 $
b1001 Y
b1010 L
b1010 A
b1010 D
b1010 J
b0 a
b1 >
b1011 ^
1#
1(
#1360000
0#
0(
#1365000
b1110 ^
b10001001 $
1#
1(
#1370000
0#
0(
#1375000
b10001010 $
b1001 P
b1001 T"
b1 b
b10 ?
1#
1(
#1380000
0#
0(
#1385000
b1001 ["
b1001 1
b1001 X"
b1001 I
b1001 G
b1001 O
b10 b
b11 ?
b10001011 $
1#
1(
#1390000
0#
0(
#1395000
b10001100 $
b1001 U
b1001 e
1V
1f
b11 b
b100 ?
1#
1(
#1400000
0#
0(
#1405000
b11 I"
1="
17
b1001 '"
b100 b
b101 ?
0V
0f
b10001101 $
1#
1(
#1410000
0#
0(
#1415000
b10001110 $
b10 ?"
1#
1(
#1420000
0#
0(
#1425000
b100 ?"
b1001 ("
b1001 K"
b1001 )"
b1001 M"
1*"
1P"
b1010 -"
b1011 ""
b10001111 $
1#
1(
#1430000
0#
0(
#1435000
b10010000 $
0*"
0P"
0="
07
b0 ?"
b0 I"
bx R"
bx o
bx O"
bx #"
1#
1(
#1440000
0#
0(
#1445000
b1001 R"
b1001 o
b1001 O"
b1001 #"
b101 b
b110 ?
b10010001 $
1#
1(
#1450000
0#
0(
#1455000
b10010010 $
b0 b
b1 ?
b1 a
b10 >
1#
1(
#1460000
0#
0(
#1465000
b1011 ^
b0 a
b1 >
b1010 Y
0@
b1011 L
0M
b1011 A
0B
b1011 D
0E
b1011 J
b10010011 $
1#
1(
#1470000
0#
0(
#1475000
b10010100 $
b10000 ^
1#
1(
#1480000
0#
0(
#1485000
b10001 ^
b0 Y
1@
b1 L
1M
b1 A
1B
b1 D
1E
b1 J
b10010101 $
1#
1(
#1490000
0#
0(
#1495000
b10010110 $
b10100 ^
1#
1(
#1500000
0#
0(
#1505000
b1 b
b10 ?
1T
1d
b10010111 $
1#
1(
#1510000
0#
0(
#1515000
b10011000 $
0T
0d
b10 b
b11 ?
16"
15
b100 I"
1#
1(
#1520000
0#
0(
#1525000
b10 8"
b10011001 $
1#
1(
#1530000
0#
0(
#1535000
b10011010 $
b1 +"
b10 $"
b0 ("
b0 K"
b1 <"
b10 w
1#
1(
#1540000
0#
0(
#1545000
b0 R"
b0 o
b0 O"
b0 #"
b10 <"
b11 w
b10011011 $
1#
1(
#1550000
0#
0(
#1555000
b10011100 $
b0 &"
b0 %"
b0 <"
b1 w
b100 8"
1#
1(
#1560000
0#
0(
#1565000
b11 8"
b10011101 $
1#
1(
#1570000
0#
0(
#1575000
b10011110 $
b110 8"
1#
1(
#1580000
0#
0(
#1585000
b0 I"
b0 8"
06"
05
b10011111 $
1#
1(
#1590000
0#
0(
#1595000
b10100000 $
b11 b
b100 ?
1#
1(
#1600000
0#
0(
#1605000
b1 a
b10 >
b0 b
b1 ?
b0 P
b0 T"
b0 Q
b0 V"
1R
1Y"
b10100001 $
1#
1(
#1610000
0#
0(
#1615000
b10100010 $
b1 Y
b10 L
b10 A
b10 D
b10 J
b0 a
b1 >
b10001 ^
b0 ["
b0 1
b0 X"
b0 I
b0 G
b0 O
1#
1(
#1620000
0#
0(
#1625000
b10100 ^
b10100011 $
1#
1(
#1630000
0#
0(
