sample/FIFOTest/wave2.vcd
$date
	Fri Dec 23 13:55:41 2016
$end
$version
	Icarus Verilog
$end
$timescale
	1ps
$end
$scope module testbench $end
$var wire 1 ! o_run_busy $end
$var reg 1 " ce $end
$var reg 1 # clock $end
$var reg 32 $ counter [31:0] $end
$var reg 1 % i_run_req $end
$var reg 1 & reset_n $end
$scope module uut1 $end
$var wire 1 ' ce $end
$var wire 1 ( clock $end
$var wire 1 ) i_run_req $end
$var wire 1 ! o_run_busy $end
$var wire 32 * o_run_return [31:0] $end
$var wire 1 + reset_n $end
$var wire 4 , w_fld_arrayA_0_addr_0 [3:0] $end
$var wire 1 - w_fld_arrayA_0_ce_0 $end
$var wire 1 . w_fld_arrayA_0_ce_1 $end
$var wire 32 / w_fld_arrayA_0_datain_0 [31:0] $end
$var wire 32 0 w_fld_arrayA_0_dataout_0 [31:0] $end
$var wire 32 1 w_fld_arrayA_0_dataout_1 [31:0] $end
$var wire 1 2 w_fld_arrayA_0_r_w_0 $end
$var wire 32 3 w_ip_fifoA2B_result_0 [31:0] $end
$var wire 1 4 w_sys_boolFalse $end
$var wire 1 5 w_sys_boolTrue $end
$var wire 1 6 w_sys_ce $end
$var wire 32 7 w_sys_intOne [31:0] $end
$var wire 32 8 w_sys_intZero [31:0] $end
$var wire 2 9 w_sys_run_stage_p1 [1:0] $end
$var wire 4 : w_sys_run_step_p1 [3:0] $end
$var wire 1 ; w_sys_tmp1 $end
$var wire 32 < w_sys_tmp10 [31:0] $end
$var wire 32 = w_sys_tmp11 [31:0] $end
$var wire 1 > w_sys_tmp12 $end
$var wire 32 ? w_sys_tmp13 [31:0] $end
$var wire 32 @ w_sys_tmp16 [31:0] $end
$var wire 32 A w_sys_tmp17 [31:0] $end
$var wire 1 B w_sys_tmp18 $end
$var wire 32 C w_sys_tmp19 [31:0] $end
$var wire 32 D w_sys_tmp2 [31:0] $end
$var wire 32 E w_sys_tmp21 [31:0] $end
$var wire 32 F w_sys_tmp22 [31:0] $end
$var wire 32 G w_sys_tmp23 [31:0] $end
$var wire 32 H w_sys_tmp24 [31:0] $end
$var wire 32 I w_sys_tmp5 [31:0] $end
$var wire 1 J w_sys_tmp6 $end
$var wire 32 K w_sys_tmp7 [31:0] $end
$var wire 32 L w_sys_tmp9 [31:0] $end
$var reg 4 M r_fld_arrayA_0_addr_1 [3:0] $end
$var reg 32 N r_fld_arrayA_0_datain_1 [31:0] $end
$var reg 1 O r_fld_arrayA_0_r_w_1 $end
$var reg 32 P r_ip_fifoA2B_a_0 [31:0] $end
$var reg 1 Q r_ip_fifoA2B_newData_0 $end
$var reg 32 R r_ip_fifoA2B_s_re_0 [31:0] $end
$var reg 32 S r_ip_fifoA2B_s_we_0 [31:0] $end
$var reg 32 T r_run_i_1 [31:0] $end
$var reg 32 U r_run_result_2 [31:0] $end
$var reg 32 V r_run_s_re_4 [31:0] $end
$var reg 32 W r_run_s_we_3 [31:0] $end
$var reg 2 X r_sys_processing_methodID [1:0] $end
$var reg 1 Y r_sys_run_busy $end
$var reg 2 Z r_sys_run_caller [1:0] $end
$var reg 5 [ r_sys_run_phase [4:0] $end
$var reg 1 \ r_sys_run_req $end
$var reg 32 ] r_sys_run_return [31:0] $end
$var reg 2 ^ r_sys_run_stage [1:0] $end
$var reg 4 _ r_sys_run_step [3:0] $end
$var reg 32 ` r_sys_tmp0_int [31:0] $end
$scope module dpram_arrayA_0 $end
$var wire 4 a addr_0 [3:0] $end
$var wire 4 b addr_1 [3:0] $end
$var wire 1 - ce_0 $end
$var wire 1 . ce_1 $end
$var wire 1 ( clk $end
$var wire 32 c datain_0 [31:0] $end
$var wire 32 d datain_1 [31:0] $end
$var wire 32 e dataout_0 [31:0] $end
$var wire 32 f dataout_1 [31:0] $end
$var wire 1 2 r_w_0 $end
$var wire 1 g r_w_1 $end
$var reg 32 h r_dataout_0 [31:0] $end
$var reg 32 i r_dataout_1 [31:0] $end
$upscope $end
$scope module fifoA2B_inst_0 $end
$var wire 32 j a [31:0] $end
$var wire 1 6 ce $end
$var wire 1 ( clk $end
$var wire 32 k count [31:0] $end
$var wire 1 l empty $end
$var wire 1 m full $end
$var wire 1 n operation_nd $end
$var wire 32 o p [31:0] $end
$var wire 1 p reset $end
$var wire 32 q s_re [31:0] $end
$var wire 32 r s_we [31:0] $end
$scope module U $end
$var wire 1 ( clk $end
$var wire 32 s count [31:0] $end
$var wire 32 t din [31:0] $end
$var wire 32 u dout [31:0] $end
$var wire 1 l empty $end
$var wire 1 m full $end
$var wire 1 v re $end
$var wire 1 p reset $end
$var wire 1 w we $end
$scope module U $end
$var wire 1 ( clk $end
$var wire 32 x din [31:0] $end
$var wire 32 y dout [31:0] $end
$var wire 1 v re $end
$var wire 1 p reset $end
$var wire 1 w we $end
$var reg 32 z count [31:0] $end
$var reg 32 { count_tmp [31:0] $end
$var reg 32 | counter [31:0] $end
$var reg 1 } empty $end
$var reg 1 ~ empty_tmp $end
$var reg 1 !" full $end
$var reg 1 "" full_tmp $end
$var reg 32 #" head [31:0] $end
$var reg 32 $" head_tmp [31:0] $end
$var reg 1 %" looped $end
$var reg 1 &" looped_tmp $end
$var reg 1 '" reset_count $end
$var reg 32 (" tail [31:0] $end
$var reg 32 )" tail_tmp [31:0] $end
$upscope $end
$upscope $end
$upscope $end
$upscope $end
$upscope $end
$enddefinitions $end
#0
$dumpvars
bx )"
bx ("
0'"
x&"
x%"
bx $"
bx #"
x""
x!"
x~
x}
b0 |
b0 {
bx z
bx y
bx x
xw
xv
bx u
bx t
bx s
bx r
bx q
zp
bx o
xn
xm
xl
bx k
bx j
bx i
bx h
xg
bx f
bx e
bx d
b0 c
bx b
b0 a
bx `
bx _
bx ^
bx ]
x\
bx [
bx Z
xY
bx X
bx W
bx V
bx U
bx T
bx S
bx R
xQ
bx P
xO
bx N
bx M
bx L
b1010 K
xJ
bx I
bx H
bx G
bx F
bx E
b1010 D
b1010 C
xB
bx A
bx @
b1010 ?
x>
bx =
bx <
x;
bx :
bx 9
b0 8
b1 7
06
15
04
bx 3
02
bx 1
bx 0
b0 /
0.
0-
b0 ,
0+
bx *
0)
0(
0'
0&
0%
b0 $
0#
0"
x!
$end
#5000
b1 |
0}
0l
0!"
0m
b0 X
b0 ]
b0 *
b0 Z
0\
b0 [
b0 ^
b1 9
b0 _
b1 :
0Y
0!
b0 M
b0 b
0O
0g
b1 $
1'"
bx {
0""
0~
1#
1(
#10000
0#
0(
#15000
b10 $
1}
1l
b0 z
b0 k
b0 s
0%"
b0 ("
b0 #"
b10 |
1~
0&"
b0 )"
b0 $"
b0 {
1#
1(
#20000
0#
0(
#25000
b11 |
b11 $
1#
1(
#30000
0#
0(
#35000
b100 $
b100 |
0'"
1#
1(
#40000
0#
0(
#45000
b101 |
b101 $
1#
1(
#50000
0#
0(
#55000
b110 $
b110 |
1#
1(
#60000
0#
0(
#65000
b111 |
b111 $
1#
1(
#70000
0#
0(
#75000
b1000 $
b1000 |
1#
1(
#80000
0#
0(
#85000
b1001 |
b1001 $
1#
1(
#90000
0#
0(
#95000
b1010 $
b1010 |
1#
1(
#100000
0#
0(
#105000
b1011 |
b1011 $
1-
1.
16
1%
1)
1"
1'
1&
1+
1#
1(
#110000
0#
0(
#115000
b1100 $
1Y
1!
b1 X
b1100 |
0%
0)
1#
1(
#120000
0#
0(
#125000
b1101 |
b10 [
b1101 $
1#
1(
#130000
0#
0(
#135000
b1110 $
b0 V
b0 W
b0 U
b0 H
b100 [
b1110 |
1#
1(
#140000
0#
0(
#145000
b1111 |
b101 [
b0 T
1;
b1 I
1J
b1 =
1>
b1 A
1B
b1 G
b1111 $
1#
1(
#150000
0#
0(
#155000
b10000 $
b1000 [
b10000 |
1#
1(
#160000
0#
0(
#165000
b10001 |
b101 [
b0 N
b0 d
1O
1g
b1 T
b10 I
b10 =
b10 A
b10 G
b10001 $
1#
1(
#170000
0#
0(
#175000
b10010 $
b1000 [
b10010 |
1#
1(
#180000
0#
0(
#185000
b0 h
b0 0
b0 e
b0 i
b0 1
b0 f
b0 F
b0 E
b0 <
b10011 |
b101 [
b1 M
b1 b
b1 N
b1 d
b10 T
b11 I
b11 =
b11 A
b11 G
b10011 $
1#
1(
#190000
0#
0(
#195000
b10100 $
b1000 [
b10100 |
bx i
bx 1
bx f
bx F
bx E
bx <
1#
1(
#200000
0#
0(
#205000
b1 i
b1 1
b1 f
b1 F
b1 E
b1 <
b10101 |
b101 [
b10 M
b10 b
b10 N
b10 d
b11 T
b100 I
b100 =
b100 A
b100 G
b10101 $
1#
1(
#210000
0#
0(
#215000
b10110 $
b1000 [
b10110 |
bx i
bx 1
bx f
bx F
bx E
bx <
1#
1(
#220000
0#
0(
#225000
b10 i
b10 1
b10 f
b10 F
b10 E
b10 <
b10111 |
b101 [
b11 M
b11 b
b11 N
b11 d
b100 T
b101 I
b101 =
b101 A
b101 G
b10111 $
1#
1(
#230000
0#
0(
#235000
b11000 $
b1000 [
b11000 |
bx i
bx 1
bx f
bx F
bx E
bx <
1#
1(
#240000
0#
0(
#245000
b11 i
b11 1
b11 f
b11 F
b11 E
b11 <
b11001 |
b101 [
b100 M
b100 b
b100 N
b100 d
b101 T
b110 I
b110 =
b110 A
b110 G
b11001 $
1#
1(
#250000
0#
0(
#255000
b11010 $
b1000 [
b11010 |
bx i
bx 1
bx f
bx F
bx E
bx <
1#
1(
#260000
0#
0(
#265000
b100 i
b100 1
b100 f
b100 F
b100 E
b100 <
b11011 |
b101 [
b101 M
b101 b
b101 N
b101 d
b110 T
b111 I
b111 =
b111 A
b111 G
b11011 $
1#
1(
#270000
0#
0(
#275000
b11100 $
b1000 [
b11100 |
bx i
bx 1
bx f
bx F
bx E
bx <
1#
1(
#280000
0#
0(
#285000
b101 i
b101 1
b101 f
b101 F
b101 E
b101 <
b11101 |
b101 [
b110 M
b110 b
b110 N
b110 d
b111 T
b1000 I
b1000 =
b1000 A
b1000 G
b11101 $
1#
1(
#290000
0#
0(
#295000
b11110 $
b1000 [
b11110 |
bx i
bx 1
bx f
bx F
bx E
bx <
1#
1(
#300000
0#
0(
#305000
b110 i
b110 1
b110 f
b110 F
b110 E
b110 <
b11111 |
b101 [
b111 M
b111 b
b111 N
b111 d
b1000 T
b1001 I
b1001 =
b1001 A
b1001 G
b11111 $
1#
1(
#310000
0#
0(
#315000
b100000 $
b1000 [
b100000 |
bx i
bx 1
bx f
bx F
bx E
bx <
1#
1(
#320000
0#
0(
#325000
b111 i
b111 1
b111 f
b111 F
b111 E
b111 <
b100001 |
b101 [
b1000 M
b1000 b
b1000 N
b1000 d
b1001 T
b1010 I
b1010 =
b1010 A
b1010 G
b100001 $
1#
1(
#330000
0#
0(
#335000
b100010 $
b1000 [
b100010 |
bx i
bx 1
bx f
bx F
bx E
bx <
1#
1(
#340000
0#
0(
#345000
b1000 i
b1000 1
b1000 f
b1000 F
b1000 E
b1000 <
b100011 |
b101 [
b1001 M
b1001 b
b1001 N
b1001 d
b1010 T
0;
b1011 I
0J
b1011 =
0>
b1011 A
0B
b1011 G
b100011 $
1#
1(
#350000
0#
0(
#355000
b100100 $
b1010 [
b100100 |
bx i
bx 1
bx f
bx F
bx E
bx <
1#
1(
#360000
0#
0(
#365000
b1001 i
b1001 1
b1001 f
b1001 F
b1001 E
b1001 <
b100101 |
b1011 [
b0 T
1;
b1 I
1J
b1 =
1>
b1 A
1B
b1 G
b100101 $
1#
1(
#370000
0#
0(
#375000
b100110 $
b1110 [
b100110 |
1#
1(
#380000
0#
0(
#385000
b100111 |
b1 _
b10 :
b0 M
b0 b
0O
0g
b1 T
b10 I
b10 =
b10 A
b10 G
b1 W
b100111 $
1#
1(
#390000
0#
0(
#395000
b101000 $
b0 W
b10 _
b11 :
b101000 |
b0 i
b0 1
b0 f
b0 F
b0 E
b0 <
1#
1(
#400000
0#
0(
#405000
1w
0v
b101001 |
b0 P
b0 j
b0 t
b0 x
b1 S
b1 r
b0 R
b0 q
0Q
0n
b11 _
b100 :
b101001 $
1#
1(
#410000
0#
0(
#415000
b101010 $
b100 _
b101 :
0}
0l
b1 z
b1 k
b1 s
b1 #"
b0 3
b0 o
b0 u
b0 y
b0 @
b0 L
b101010 |
b1 {
0~
b1 $"
1#
1(
#420000
0#
0(
#425000
b101011 |
b10 z
b10 k
b10 s
b10 #"
b101 _
b110 :
b101011 $
b10 $"
b10 {
1#
1(
#430000
0#
0(
#435000
b101100 $
b110 _
b111 :
b11 z
b11 k
b11 s
b11 #"
b101100 |
b11 $"
b11 {
1#
1(
#440000
0#
0(
#445000
b101101 |
b100 z
b100 k
b100 s
b100 #"
b111 _
b1000 :
b101101 $
b100 $"
b100 {
1#
1(
#450000
0#
0(
#455000
b101110 $
b1000 _
b1001 :
b101 z
b101 k
b101 s
b101 #"
b101110 |
b101 $"
b101 {
1#
1(
#460000
0#
0(
#465000
b101111 |
b110 z
b110 k
b110 s
b110 #"
b1011 [
b0 _
b1 :
b101111 $
b110 $"
b110 {
1#
1(
#470000
0#
0(
#475000
b110000 $
b1110 [
b111 z
b111 k
b111 s
b111 #"
b110000 |
b111 $"
b111 {
1#
1(
#480000
0#
0(
#485000
b110001 |
b1000 z
b1000 k
b1000 s
b1000 #"
b1 _
b10 :
b1 M
b1 b
b10 T
b11 I
b11 =
b11 A
b11 G
b1 W
b110001 $
b1000 $"
b1000 {
1#
1(
#490000
0#
0(
#495000
b110010 $
b0 W
b10 _
b11 :
b1001 z
b1001 k
b1001 s
b1001 #"
b110010 |
b1 i
b1 1
b1 f
b1 F
b1 E
b1 <
b1001 $"
b1001 {
1#
1(
#500000
0#
0(
#505000
b110011 |
b1010 z
b1010 k
b1010 s
b1010 #"
b1 P
b1 j
b1 t
b1 x
b11 _
b100 :
b110011 $
b1010 $"
b1010 {
1#
1(
#510000
0#
0(
#515000
b110100 $
b100 _
b101 :
b1011 z
b1011 k
b1011 s
b1011 #"
b110100 |
b1011 $"
b1011 {
1#
1(
#520000
0#
0(
#525000
b110101 |
b1100 z
b1100 k
b1100 s
b1100 #"
b101 _
b110 :
b110101 $
b1100 $"
b1100 {
1#
1(
#530000
0#
0(
#535000
b110110 $
b110 _
b111 :
b1101 z
b1101 k
b1101 s
b1101 #"
b110110 |
b1101 $"
b1101 {
1#
1(
#540000
0#
0(
#545000
b110111 |
b1110 z
b1110 k
b1110 s
b1110 #"
b111 _
b1000 :
b110111 $
b1110 $"
b1110 {
1#
1(
#550000
0#
0(
#555000
b111000 $
b1000 _
b1001 :
b1111 z
b1111 k
b1111 s
b1111 #"
b111000 |
b1111 $"
b1111 {
1#
1(
#560000
0#
0(
#565000
b111001 |
b10000 z
b10000 k
b10000 s
b10000 #"
b1011 [
b0 _
b1 :
b111001 $
b10000 $"
b10000 {
1#
1(
#570000
0#
0(
#575000
b111010 $
b1110 [
b10001 z
b10001 k
b10001 s
b10001 #"
b111010 |
b10001 $"
b10001 {
1#
1(
#580000
0#
0(
#585000
b111011 |
b10010 z
b10010 k
b10010 s
b10010 #"
b1 _
b10 :
b10 M
b10 b
b11 T
b100 I
b100 =
b100 A
b100 G
b1 W
b111011 $
b10010 $"
b10010 {
1#
1(
#590000
0#
0(
#595000
b111100 $
b0 W
b10 _
b11 :
b10011 z
b10011 k
b10011 s
b10011 #"
b111100 |
b10 i
b10 1
b10 f
b10 F
b10 E
b10 <
b10011 $"
b10011 {
1#
1(
#600000
0#
0(
#605000
b111101 |
b10100 z
b10100 k
b10100 s
b10100 #"
b10 P
b10 j
b10 t
b10 x
b11 _
b100 :
b111101 $
b10100 $"
b10100 {
1#
1(
#610000
0#
0(
#615000
b111110 $
b100 _
b101 :
b10101 z
b10101 k
b10101 s
b10101 #"
b111110 |
b10101 $"
b10101 {
1#
1(
#620000
0#
0(
#625000
b111111 |
b10110 z
b10110 k
b10110 s
b10110 #"
b101 _
b110 :
b111111 $
b10110 $"
b10110 {
1#
1(
#630000
0#
0(
#635000
b1000000 $
b110 _
b111 :
b10111 z
b10111 k
b10111 s
b10111 #"
b1000000 |
b10111 $"
b10111 {
1#
1(
#640000
0#
0(
#645000
b1000001 |
b11000 z
b11000 k
b11000 s
b11000 #"
b111 _
b1000 :
b1000001 $
b11000 $"
b11000 {
1#
1(
#650000
0#
0(
#655000
b1000010 $
b1000 _
b1001 :
b11001 z
b11001 k
b11001 s
b11001 #"
b1000010 |
b11001 $"
b11001 {
1#
1(
#660000
0#
0(
#665000
b1000011 |
b11010 z
b11010 k
b11010 s
b11010 #"
b1011 [
b0 _
b1 :
b1000011 $
b11010 $"
b11010 {
1#
1(
#670000
0#
0(
#675000
b1000100 $
b1110 [
b11011 z
b11011 k
b11011 s
b11011 #"
b1000100 |
b11011 $"
b11011 {
1#
1(
#680000
0#
0(
#685000
b1000101 |
b11100 z
b11100 k
b11100 s
b11100 #"
b1 _
b10 :
b11 M
b11 b
b100 T
b101 I
b101 =
b101 A
b101 G
b1 W
b1000101 $
b11100 $"
b11100 {
1#
1(
#690000
0#
0(
#695000
b1000110 $
b0 W
b10 _
b11 :
b11101 z
b11101 k
b11101 s
b11101 #"
b1000110 |
b11 i
b11 1
b11 f
b11 F
b11 E
b11 <
b11101 $"
b11101 {
1#
1(
#700000
0#
0(
#705000
b1000111 |
b11110 z
b11110 k
b11110 s
b11110 #"
b11 P
b11 j
b11 t
b11 x
b11 _
b100 :
b1000111 $
b11110 $"
b11110 {
1#
1(
#710000
0#
0(
#715000
b1001000 $
b100 _
b101 :
b11111 z
b11111 k
b11111 s
b11111 #"
b1001000 |
b11111 $"
b11111 {
1#
1(
#720000
0#
0(
#725000
b1001001 |
b100000 z
b100000 k
b100000 s
b100000 #"
b101 _
b110 :
b1001001 $
b100000 $"
b100000 {
1#
1(
#730000
0#
0(
#735000
b1001010 $
b110 _
b111 :
b100001 z
b100001 k
b100001 s
b100001 #"
b1001010 |
b100001 $"
b100001 {
1#
1(
#740000
0#
0(
#745000
b1001011 |
b100010 z
b100010 k
b100010 s
b100010 #"
b111 _
b1000 :
b1001011 $
b100010 $"
b100010 {
1#
1(
#750000
0#
0(
#755000
b1001100 $
b1000 _
b1001 :
b100011 z
b100011 k
b100011 s
b100011 #"
b1001100 |
b100011 $"
b100011 {
1#
1(
#760000
0#
0(
#765000
b1001101 |
b100100 z
b100100 k
b100100 s
b100100 #"
b1011 [
b0 _
b1 :
b1001101 $
b100100 $"
b100100 {
1#
1(
#770000
0#
0(
#775000
b1001110 $
b1110 [
b100101 z
b100101 k
b100101 s
b100101 #"
b1001110 |
b100101 $"
b100101 {
1#
1(
#780000
0#
0(
#785000
b1001111 |
b100110 z
b100110 k
b100110 s
b100110 #"
b1 _
b10 :
b100 M
b100 b
b101 T
b110 I
b110 =
b110 A
b110 G
b1 W
b1001111 $
b100110 $"
b100110 {
1#
1(
#790000
0#
0(
#795000
b1010000 $
b0 W
b10 _
b11 :
b100111 z
b100111 k
b100111 s
b100111 #"
b1010000 |
b100 i
b100 1
b100 f
b100 F
b100 E
b100 <
b100111 $"
b100111 {
1#
1(
#800000
0#
0(
#805000
b1010001 |
b101000 z
b101000 k
b101000 s
b101000 #"
b100 P
b100 j
b100 t
b100 x
b11 _
b100 :
b1010001 $
b101000 $"
b101000 {
1#
1(
#810000
0#
0(
#815000
b1010010 $
b100 _
b101 :
b101001 z
b101001 k
b101001 s
b101001 #"
b1010010 |
b101001 $"
b101001 {
1#
1(
#820000
0#
0(
#825000
b1010011 |
b101010 z
b101010 k
b101010 s
b101010 #"
b101 _
b110 :
b1010011 $
b101010 $"
b101010 {
1#
1(
#830000
0#
0(
#835000
b1010100 $
b110 _
b111 :
b101011 z
b101011 k
b101011 s
b101011 #"
b1010100 |
b101011 $"
b101011 {
1#
1(
#840000
0#
0(
#845000
b1010101 |
b101100 z
b101100 k
b101100 s
b101100 #"
b111 _
b1000 :
b1010101 $
b101100 $"
b101100 {
1#
1(
#850000
0#
0(
#855000
b1010110 $
b1000 _
b1001 :
b101101 z
b101101 k
b101101 s
b101101 #"
b1010110 |
b101101 $"
b101101 {
1#
1(
#860000
0#
0(
#865000
b1010111 |
b101110 z
b101110 k
b101110 s
b101110 #"
b1011 [
b0 _
b1 :
b1010111 $
b101110 $"
b101110 {
1#
1(
#870000
0#
0(
#875000
b1011000 $
b1110 [
b101111 z
b101111 k
b101111 s
b101111 #"
b1011000 |
b101111 $"
b101111 {
1#
1(
#880000
0#
0(
#885000
b1011001 |
b110000 z
b110000 k
b110000 s
b110000 #"
b1 _
b10 :
b101 M
b101 b
b110 T
b111 I
b111 =
b111 A
b111 G
b1 W
b1011001 $
b110000 $"
b110000 {
1#
1(
#890000
0#
0(
#895000
b1011010 $
b0 W
b10 _
b11 :
b110001 z
b110001 k
b110001 s
b110001 #"
b1011010 |
b101 i
b101 1
b101 f
b101 F
b101 E
b101 <
b110001 $"
b110001 {
1#
1(
#900000
0#
0(
#905000
b1011011 |
b110010 z
b110010 k
b110010 s
b110010 #"
b101 P
b101 j
b101 t
b101 x
b11 _
b100 :
b1011011 $
b110010 $"
b110010 {
1#
1(
#910000
0#
0(
#915000
b1011100 $
b100 _
b101 :
b110011 z
b110011 k
b110011 s
b110011 #"
b1011100 |
b110011 $"
b110011 {
1#
1(
#920000
0#
0(
#925000
b1011101 |
b110100 z
b110100 k
b110100 s
b110100 #"
b101 _
b110 :
b1011101 $
b110100 $"
b110100 {
1#
1(
#930000
0#
0(
#935000
b1011110 $
b110 _
b111 :
b110101 z
b110101 k
b110101 s
b110101 #"
b1011110 |
b110101 $"
b110101 {
1#
1(
#940000
0#
0(
#945000
b1011111 |
b110110 z
b110110 k
b110110 s
b110110 #"
b111 _
b1000 :
b1011111 $
b110110 $"
b110110 {
1#
1(
#950000
0#
0(
#955000
b1100000 $
b1000 _
b1001 :
b110111 z
b110111 k
b110111 s
b110111 #"
b1100000 |
b110111 $"
b110111 {
1#
1(
#960000
0#
0(
#965000
b1100001 |
b111000 z
b111000 k
b111000 s
b111000 #"
b1011 [
b0 _
b1 :
b1100001 $
b111000 $"
b111000 {
1#
1(
#970000
0#
0(
#975000
b1100010 $
b1110 [
b111001 z
b111001 k
b111001 s
b111001 #"
b1100010 |
b111001 $"
b111001 {
1#
1(
#980000
0#
0(
#985000
b1100011 |
b111010 z
b111010 k
b111010 s
b111010 #"
b1 _
b10 :
b110 M
b110 b
b111 T
b1000 I
b1000 =
b1000 A
b1000 G
b1 W
b1100011 $
b111010 $"
b111010 {
1#
1(
#990000
0#
0(
#995000
b1100100 $
b0 W
b10 _
b11 :
b111011 z
b111011 k
b111011 s
b111011 #"
b1100100 |
b110 i
b110 1
b110 f
b110 F
b110 E
b110 <
b111011 $"
b111011 {
1#
1(
#1000000
0#
0(
#1005000
b1100101 |
b111100 z
b111100 k
b111100 s
b111100 #"
b110 P
b110 j
b110 t
b110 x
b11 _
b100 :
b1100101 $
b111100 $"
b111100 {
1#
1(
#1010000
0#
0(
#1015000
b1100110 $
b100 _
b101 :
b111101 z
b111101 k
b111101 s
b111101 #"
b1100110 |
b111101 $"
b111101 {
1#
1(
#1020000
0#
0(
#1025000
b1100111 |
b111110 z
b111110 k
b111110 s
b111110 #"
b101 _
b110 :
b1100111 $
b111110 $"
b111110 {
1#
1(
#1030000
0#
0(
#1035000
b1101000 $
b110 _
b111 :
b111111 z
b111111 k
b111111 s
b111111 #"
b1101000 |
b111111 $"
b111111 {
1#
1(
#1040000
0#
0(
#1045000
b1101001 |
b1000000 z
b1000000 k
b1000000 s
b1000000 #"
b111 _
b1000 :
b1101001 $
b1000000 $"
b1000000 {
1#
1(
#1050000
0#
0(
#1055000
b1101010 $
b1000 _
b1001 :
b1000001 z
b1000001 k
b1000001 s
b1000001 #"
b1101010 |
b1000001 $"
b1000001 {
1#
1(
#1060000
0#
0(
#1065000
b1101011 |
b1000010 z
b1000010 k
b1000010 s
b1000010 #"
b1011 [
b0 _
b1 :
b1101011 $
b1000010 $"
b1000010 {
1#
1(
#1070000
0#
0(
#1075000
b1101100 $
b1110 [
b1000011 z
b1000011 k
b1000011 s
b1000011 #"
b1101100 |
b1000011 $"
b1000011 {
1#
1(
#1080000
0#
0(
#1085000
b1101101 |
b1000100 z
b1000100 k
b1000100 s
b1000100 #"
b1 _
b10 :
b111 M
b111 b
b1000 T
b1001 I
b1001 =
b1001 A
b1001 G
b1 W
b1101101 $
b1000100 $"
b1000100 {
1#
1(
#1090000
0#
0(
#1095000
b1101110 $
b0 W
b10 _
b11 :
b1000101 z
b1000101 k
b1000101 s
b1000101 #"
b1101110 |
b111 i
b111 1
b111 f
b111 F
b111 E
b111 <
b1000101 $"
b1000101 {
1#
1(
#1100000
0#
0(
#1105000
b1101111 |
b1000110 z
b1000110 k
b1000110 s
b1000110 #"
b111 P
b111 j
b111 t
b111 x
b11 _
b100 :
b1101111 $
b1000110 $"
b1000110 {
1#
1(
#1110000
0#
0(
#1115000
b1110000 $
b100 _
b101 :
b1000111 z
b1000111 k
b1000111 s
b1000111 #"
b1110000 |
b1000111 $"
b1000111 {
1#
1(
#1120000
0#
0(
#1125000
b1110001 |
b1001000 z
b1001000 k
b1001000 s
b1001000 #"
b101 _
b110 :
b1110001 $
b1001000 $"
b1001000 {
1#
1(
#1130000
0#
0(
#1135000
b1110010 $
b110 _
b111 :
b1001001 z
b1001001 k
b1001001 s
b1001001 #"
b1110010 |
b1001001 $"
b1001001 {
1#
1(
#1140000
0#
0(
#1145000
b1110011 |
b1001010 z
b1001010 k
b1001010 s
b1001010 #"
b111 _
b1000 :
b1110011 $
b1001010 $"
b1001010 {
1#
1(
#1150000
0#
0(
#1155000
b1110100 $
b1000 _
b1001 :
b1001011 z
b1001011 k
b1001011 s
b1001011 #"
b1110100 |
b1001011 $"
b1001011 {
1#
1(
#1160000
0#
0(
#1165000
b1110101 |
b1001100 z
b1001100 k
b1001100 s
b1001100 #"
b1011 [
b0 _
b1 :
b1110101 $
b1001100 $"
b1001100 {
1#
1(
#1170000
0#
0(
#1175000
b1110110 $
b1110 [
b1001101 z
b1001101 k
b1001101 s
b1001101 #"
b1110110 |
b1001101 $"
b1001101 {
1#
1(
#1180000
0#
0(
#1185000
b1110111 |
b1001110 z
b1001110 k
b1001110 s
b1001110 #"
b1 _
b10 :
b1000 M
b1000 b
b1001 T
b1010 I
b1010 =
b1010 A
b1010 G
b1 W
b1110111 $
b1001110 $"
b1001110 {
1#
1(
#1190000
0#
0(
#1195000
b1111000 $
b0 W
b10 _
b11 :
b1001111 z
b1001111 k
b1001111 s
b1001111 #"
b1111000 |
b1000 i
b1000 1
b1000 f
b1000 F
b1000 E
b1000 <
b1001111 $"
b1001111 {
1#
1(
#1200000
0#
0(
#1205000
b1111001 |
b1010000 z
b1010000 k
b1010000 s
b1010000 #"
b1000 P
b1000 j
b1000 t
b1000 x
b11 _
b100 :
b1111001 $
b1010000 $"
b1010000 {
1#
1(
#1210000
0#
0(
#1215000
b1111010 $
b100 _
b101 :
b1010001 z
b1010001 k
b1010001 s
b1010001 #"
b1111010 |
b1010001 $"
b1010001 {
1#
1(
#1220000
0#
0(
#1225000
b1111011 |
b1010010 z
b1010010 k
b1010010 s
b1010010 #"
b101 _
b110 :
b1111011 $
b1010010 $"
b1010010 {
1#
1(
#1230000
0#
0(
#1235000
b1111100 $
b110 _
b111 :
b1010011 z
b1010011 k
b1010011 s
b1010011 #"
b1111100 |
b1010011 $"
b1010011 {
1#
1(
#1240000
0#
0(
#1245000
b1111101 |
b1010100 z
b1010100 k
b1010100 s
b1010100 #"
b111 _
b1000 :
b1111101 $
b1010100 $"
b1010100 {
1#
1(
#1250000
0#
0(
#1255000
b1111110 $
b1000 _
b1001 :
b1010101 z
b1010101 k
b1010101 s
b1010101 #"
b1111110 |
b1010101 $"
b1010101 {
1#
1(
#1260000
0#
0(
#1265000
b1111111 |
b1010110 z
b1010110 k
b1010110 s
b1010110 #"
b1011 [
b0 _
b1 :
b1111111 $
b1010110 $"
b1010110 {
1#
1(
#1270000
0#
0(
#1275000
b10000000 $
b1110 [
b1010111 z
b1010111 k
b1010111 s
b1010111 #"
b10000000 |
b1010111 $"
b1010111 {
1#
1(
#1280000
0#
0(
#1285000
b10000001 |
b1011000 z
b1011000 k
b1011000 s
b1011000 #"
b1 _
b10 :
b1001 M
b1001 b
b1010 T
0;
b1011 I
0J
b1011 =
0>
b1011 A
0B
b1011 G
b1 W
b10000001 $
b1011000 $"
b1011000 {
1#
1(
#1290000
0#
0(
#1295000
b10000010 $
b0 W
b10 _
b11 :
b1011001 z
b1011001 k
b1011001 s
b1011001 #"
b10000010 |
b1001 i
b1001 1
b1001 f
b1001 F
b1001 E
b1001 <
b1011001 $"
b1011001 {
1#
1(
#1300000
0#
0(
#1305000
b10000011 |
b1011010 z
b1011010 k
b1011010 s
b1011010 #"
b1001 P
b1001 j
b1001 t
b1001 x
b11 _
b100 :
b10000011 $
b1011010 $"
b1011010 {
1#
1(
#1310000
0#
0(
#1315000
b10000100 $
b100 _
b101 :
b1011011 z
b1011011 k
b1011011 s
b1011011 #"
b10000100 |
b1011011 $"
b1011011 {
1#
1(
#1320000
0#
0(
#1325000
b10000101 |
b1011100 z
b1011100 k
b1011100 s
b1011100 #"
b101 _
b110 :
b10000101 $
b1011100 $"
b1011100 {
1#
1(
#1330000
0#
0(
#1335000
b10000110 $
b110 _
b111 :
b1011101 z
b1011101 k
b1011101 s
b1011101 #"
b10000110 |
b1011101 $"
b1011101 {
1#
1(
#1340000
0#
0(
#1345000
b10000111 |
b1011110 z
b1011110 k
b1011110 s
b1011110 #"
b111 _
b1000 :
b10000111 $
b1011110 $"
b1011110 {
1#
1(
#1350000
0#
0(
