sample/FIFOTest/wave2.vcd
$date
	Wed Dec 21 17:56:51 2016
$end
$version
	Icarus Verilog
$end
$timescale
	1ps
$end
$scope module testbench $end
$var wire 1 ! o_run_busy $end
$var reg 1 " ce $end
$var reg 1 # clock $end
$var reg 32 $ counter [31:0] $end
$var reg 1 % i_run_req $end
$var reg 1 & reset_n $end
$scope module uut $end
$var wire 1 ' ce $end
$var wire 1 ( clock $end
$var wire 1 ) i_run_req $end
$var wire 1 ! o_run_busy $end
$var wire 32 * o_run_return [31:0] $end
$var wire 1 + reset_n $end
$var wire 4 , w_fld_arrayA_0_addr_0 [3:0] $end
$var wire 1 - w_fld_arrayA_0_ce_0 $end
$var wire 1 . w_fld_arrayA_0_ce_1 $end
$var wire 32 / w_fld_arrayA_0_datain_0 [31:0] $end
$var wire 32 0 w_fld_arrayA_0_dataout_0 [31:0] $end
$var wire 32 1 w_fld_arrayA_0_dataout_1 [31:0] $end
$var wire 1 2 w_fld_arrayA_0_r_w_0 $end
$var wire 32 3 w_ip_fifoA2B_result_0 [31:0] $end
$var wire 1 4 w_sys_boolFalse $end
$var wire 1 5 w_sys_boolTrue $end
$var wire 1 6 w_sys_ce $end
$var wire 32 7 w_sys_intOne [31:0] $end
$var wire 32 8 w_sys_intZero [31:0] $end
$var wire 2 9 w_sys_run_stage_p1 [1:0] $end
$var wire 3 : w_sys_run_step_p1 [2:0] $end
$var wire 1 ; w_sys_tmp1 $end
$var wire 32 < w_sys_tmp10 [31:0] $end
$var wire 32 = w_sys_tmp11 [31:0] $end
$var wire 1 > w_sys_tmp12 $end
$var wire 32 ? w_sys_tmp13 [31:0] $end
$var wire 32 @ w_sys_tmp16 [31:0] $end
$var wire 32 A w_sys_tmp17 [31:0] $end
$var wire 1 B w_sys_tmp18 $end
$var wire 32 C w_sys_tmp19 [31:0] $end
$var wire 32 D w_sys_tmp2 [31:0] $end
$var wire 32 E w_sys_tmp21 [31:0] $end
$var wire 32 F w_sys_tmp22 [31:0] $end
$var wire 32 G w_sys_tmp23 [31:0] $end
$var wire 32 H w_sys_tmp24 [31:0] $end
$var wire 32 I w_sys_tmp5 [31:0] $end
$var wire 1 J w_sys_tmp6 $end
$var wire 32 K w_sys_tmp7 [31:0] $end
$var wire 32 L w_sys_tmp9 [31:0] $end
$var reg 4 M r_fld_arrayA_0_addr_1 [3:0] $end
$var reg 32 N r_fld_arrayA_0_datain_1 [31:0] $end
$var reg 1 O r_fld_arrayA_0_r_w_1 $end
$var reg 32 P r_ip_fifoA2B_a_0 [31:0] $end
$var reg 1 Q r_ip_fifoA2B_newData_0 $end
$var reg 32 R r_ip_fifoA2B_s_re_0 [31:0] $end
$var reg 32 S r_ip_fifoA2B_s_we_0 [31:0] $end
$var reg 32 T r_run_i_1 [31:0] $end
$var reg 32 U r_run_result_2 [31:0] $end
$var reg 32 V r_run_s_re_4 [31:0] $end
$var reg 32 W r_run_s_we_3 [31:0] $end
$var reg 2 X r_sys_processing_methodID [1:0] $end
$var reg 1 Y r_sys_run_busy $end
$var reg 2 Z r_sys_run_caller [1:0] $end
$var reg 5 [ r_sys_run_phase [4:0] $end
$var reg 1 \ r_sys_run_req $end
$var reg 32 ] r_sys_run_return [31:0] $end
$var reg 2 ^ r_sys_run_stage [1:0] $end
$var reg 3 _ r_sys_run_step [2:0] $end
$scope module dpram_arrayA_0 $end
$var wire 4 ` addr_0 [3:0] $end
$var wire 4 a addr_1 [3:0] $end
$var wire 1 - ce_0 $end
$var wire 1 . ce_1 $end
$var wire 1 ( clk $end
$var wire 32 b datain_0 [31:0] $end
$var wire 32 c datain_1 [31:0] $end
$var wire 32 d dataout_0 [31:0] $end
$var wire 32 e dataout_1 [31:0] $end
$var wire 1 2 r_w_0 $end
$var wire 1 f r_w_1 $end
$var reg 32 g r_dataout_0 [31:0] $end
$var reg 32 h r_dataout_1 [31:0] $end
$upscope $end
$scope module fifoA2B_inst_0 $end
$var wire 32 i a [31:0] $end
$var wire 1 ( clk $end
$var wire 32 j count [31:0] $end
$var wire 1 k empty $end
$var wire 1 l full $end
$var wire 1 m operation_nd $end
$var wire 32 n p [31:0] $end
$var wire 1 o reset $end
$var wire 32 p s_re [31:0] $end
$var wire 32 q s_we [31:0] $end
$scope module U $end
$var wire 1 ( clk $end
$var wire 32 r count [31:0] $end
$var wire 32 s din [31:0] $end
$var wire 32 t dout [31:0] $end
$var wire 1 k empty $end
$var wire 1 l full $end
$var wire 1 u re $end
$var wire 1 o reset $end
$var wire 1 v we $end
$scope module U $end
$var wire 1 ( clk $end
$var wire 32 w din [31:0] $end
$var wire 32 x dout [31:0] $end
$var wire 1 u re $end
$var wire 1 o reset $end
$var wire 1 v we $end
$var reg 32 y count [31:0] $end
$var reg 32 z count_tmp [31:0] $end
$var reg 32 { counter [31:0] $end
$var reg 1 | empty $end
$var reg 1 } empty_tmp $end
$var reg 1 ~ full $end
$var reg 1 !" full_tmp $end
$var reg 32 "" head [31:0] $end
$var reg 32 #" head_tmp [31:0] $end
$var reg 1 $" looped $end
$var reg 1 %" looped_tmp $end
$var reg 1 &" reset_count $end
$var reg 32 '" tail [31:0] $end
$var reg 32 (" tail_tmp [31:0] $end
$upscope $end
$upscope $end
$upscope $end
$upscope $end
$upscope $end
$enddefinitions $end
#0
$dumpvars
bx ("
bx '"
0&"
x%"
x$"
bx #"
bx ""
x!"
x~
x}
x|
b0 {
b0 z
bx y
bx x
bx w
xv
xu
bx t
bx s
bx r
bx q
bx p
zo
bx n
xm
xl
xk
bx j
bx i
bx h
bx g
xf
bx e
bx d
bx c
b0 b
bx a
b0 `
bx _
bx ^
bx ]
x\
bx [
bx Z
xY
bx X
bx W
bx V
bx U
bx T
bx S
bx R
xQ
bx P
xO
bx N
bx M
bx L
b1010 K
xJ
bx I
bx H
bx G
bx F
bx E
b1010 D
b1010 C
xB
bx A
bx @
b1010 ?
x>
bx =
bx <
x;
bx :
bx 9
b0 8
b1 7
06
15
04
bx 3
02
bx 1
bx 0
b0 /
0.
0-
b0 ,
0+
bx *
0)
0(
0'
0&
0%
b0 $
0#
0"
x!
$end
#5000
b1 {
0|
0k
0~
0l
b0 X
b0 ]
b0 *
b0 Z
0\
b0 [
b0 ^
b1 9
b0 _
b1 :
0Y
0!
b0 M
b0 a
0O
0f
b1 $
1&"
bx z
0!"
0}
1#
1(
#10000
0#
0(
#15000
b10 $
1|
1k
b0 y
b0 j
b0 r
0$"
b0 '"
b0 ""
b10 {
1}
0%"
b0 ("
b0 #"
b0 z
1#
1(
#20000
0#
0(
#25000
b11 {
b11 $
1#
1(
#30000
0#
0(
#35000
b100 $
b100 {
0&"
1#
1(
#40000
0#
0(
#45000
b101 {
b101 $
1#
1(
#50000
0#
0(
#55000
b110 $
b110 {
1#
1(
#60000
0#
0(
#65000
b111 {
b111 $
1#
1(
#70000
0#
0(
#75000
b1000 $
b1000 {
1#
1(
#80000
0#
0(
#85000
b1001 {
b1001 $
1#
1(
#90000
0#
0(
#95000
b1010 $
b1010 {
1#
1(
#100000
0#
0(
#105000
b1011 {
b1011 $
1-
1.
16
1%
1)
1"
1'
1&
1+
1#
1(
#110000
0#
0(
#115000
b1100 $
1Y
1!
b1 X
b1100 {
0%
0)
1#
1(
#120000
0#
0(
#125000
b1101 {
b10 [
b1101 $
1#
1(
#130000
0#
0(
#135000
b1110 $
b0 V
b0 W
b0 U
b0 H
b100 [
b1110 {
1#
1(
#140000
0#
0(
#145000
b1111 {
b101 [
b0 T
1;
b1 I
1J
b1 =
1>
b1 A
1B
b1 G
b1111 $
1#
1(
#150000
0#
0(
#155000
b10000 $
b1000 [
b10000 {
1#
1(
#160000
0#
0(
#165000
b10001 {
b101 [
b0 N
b0 c
1O
1f
b1 T
b10 I
b10 =
b10 A
b10 G
b10001 $
1#
1(
#170000
0#
0(
#175000
b10010 $
b1000 [
b10010 {
1#
1(
#180000
0#
0(
#185000
b0 g
b0 0
b0 d
b0 h
b0 1
b0 e
b0 F
b0 E
b0 <
b10011 {
b101 [
b1 M
b1 a
b1 N
b1 c
b10 T
b11 I
b11 =
b11 A
b11 G
b10011 $
1#
1(
#190000
0#
0(
#195000
b10100 $
b1000 [
b10100 {
bx h
bx 1
bx e
bx F
bx E
bx <
1#
1(
#200000
0#
0(
#205000
b1 h
b1 1
b1 e
b1 F
b1 E
b1 <
b10101 {
b101 [
b10 M
b10 a
b10 N
b10 c
b11 T
b100 I
b100 =
b100 A
b100 G
b10101 $
1#
1(
#210000
0#
0(
#215000
b10110 $
b1000 [
b10110 {
bx h
bx 1
bx e
bx F
bx E
bx <
1#
1(
#220000
0#
0(
#225000
b10 h
b10 1
b10 e
b10 F
b10 E
b10 <
b10111 {
b101 [
b11 M
b11 a
b11 N
b11 c
b100 T
b101 I
b101 =
b101 A
b101 G
b10111 $
1#
1(
#230000
0#
0(
#235000
b11000 $
b1000 [
b11000 {
bx h
bx 1
bx e
bx F
bx E
bx <
1#
1(
#240000
0#
0(
#245000
b11 h
b11 1
b11 e
b11 F
b11 E
b11 <
b11001 {
b101 [
b100 M
b100 a
b100 N
b100 c
b101 T
b110 I
b110 =
b110 A
b110 G
b11001 $
1#
1(
#250000
0#
0(
#255000
b11010 $
b1000 [
b11010 {
bx h
bx 1
bx e
bx F
bx E
bx <
1#
1(
#260000
0#
0(
#265000
b100 h
b100 1
b100 e
b100 F
b100 E
b100 <
b11011 {
b101 [
b101 M
b101 a
b101 N
b101 c
b110 T
b111 I
b111 =
b111 A
b111 G
b11011 $
1#
1(
#270000
0#
0(
#275000
b11100 $
b1000 [
b11100 {
bx h
bx 1
bx e
bx F
bx E
bx <
1#
1(
#280000
0#
0(
#285000
b101 h
b101 1
b101 e
b101 F
b101 E
b101 <
b11101 {
b101 [
b110 M
b110 a
b110 N
b110 c
b111 T
b1000 I
b1000 =
b1000 A
b1000 G
b11101 $
1#
1(
#290000
0#
0(
#295000
b11110 $
b1000 [
b11110 {
bx h
bx 1
bx e
bx F
bx E
bx <
1#
1(
#300000
0#
0(
#305000
b110 h
b110 1
b110 e
b110 F
b110 E
b110 <
b11111 {
b101 [
b111 M
b111 a
b111 N
b111 c
b1000 T
b1001 I
b1001 =
b1001 A
b1001 G
b11111 $
1#
1(
#310000
0#
0(
#315000
b100000 $
b1000 [
b100000 {
bx h
bx 1
bx e
bx F
bx E
bx <
1#
1(
#320000
0#
0(
#325000
b111 h
b111 1
b111 e
b111 F
b111 E
b111 <
b100001 {
b101 [
b1000 M
b1000 a
b1000 N
b1000 c
b1001 T
b1010 I
b1010 =
b1010 A
b1010 G
b100001 $
1#
1(
#330000
0#
0(
#335000
b100010 $
b1000 [
b100010 {
bx h
bx 1
bx e
bx F
bx E
bx <
1#
1(
#340000
0#
0(
#345000
b1000 h
b1000 1
b1000 e
b1000 F
b1000 E
b1000 <
b100011 {
b101 [
b1001 M
b1001 a
b1001 N
b1001 c
b1010 T
0;
b1011 I
0J
b1011 =
0>
b1011 A
0B
b1011 G
b100011 $
1#
1(
#350000
0#
0(
#355000
b100100 $
b1010 [
b100100 {
bx h
bx 1
bx e
bx F
bx E
bx <
1#
1(
#360000
0#
0(
#365000
b1001 h
b1001 1
b1001 e
b1001 F
b1001 E
b1001 <
b100101 {
b1011 [
b0 T
1;
b1 I
1J
b1 =
1>
b1 A
1B
b1 G
b100101 $
1#
1(
#370000
0#
0(
#375000
b100110 $
b1110 [
b100110 {
1#
1(
#380000
0#
0(
#385000
b100111 {
b1 _
b10 :
b0 M
b0 a
0O
0f
b1 T
b10 I
b10 =
b10 A
b10 G
b1 W
b100111 $
1#
1(
#390000
0#
0(
#395000
b101000 $
b0 W
b10 _
b11 :
b101000 {
b0 h
b0 1
b0 e
b0 F
b0 E
b0 <
1#
1(
#400000
0#
0(
#405000
1v
0u
b101001 {
b0 P
b0 i
b0 s
b0 w
b1 S
b1 q
b0 R
b0 p
0Q
0m
b11 _
b100 :
b101001 $
1#
1(
#410000
0#
0(
#415000
b101010 $
b0 _
b1 :
b1011 [
0|
0k
b1 y
b1 j
b1 r
b1 ""
b0 3
b0 n
b0 t
b0 x
b0 @
b0 L
b101010 {
b1 z
0}
b1 #"
1#
1(
#420000
0#
0(
#425000
b101011 {
b10 y
b10 j
b10 r
b10 ""
b1110 [
b101011 $
b10 #"
b10 z
1#
1(
#430000
0#
0(
#435000
b101100 $
b1 W
b10 T
b11 I
b11 =
b11 A
b11 G
b1 M
b1 a
b1 _
b10 :
b11 y
b11 j
b11 r
b11 ""
b101100 {
b11 #"
b11 z
1#
1(
#440000
0#
0(
#445000
b1 h
b1 1
b1 e
b1 F
b1 E
b1 <
b101101 {
b100 y
b100 j
b100 r
b100 ""
b10 _
b11 :
b0 W
b101101 $
b100 #"
b100 z
1#
1(
#450000
0#
0(
#455000
b101110 $
b11 _
b100 :
b1 P
b1 i
b1 s
b1 w
b101 y
b101 j
b101 r
b101 ""
b101110 {
b101 #"
b101 z
1#
1(
#460000
0#
0(
#465000
b101111 {
b110 y
b110 j
b110 r
b110 ""
b1011 [
b0 _
b1 :
b101111 $
b110 #"
b110 z
1#
1(
#470000
0#
0(
#475000
b110000 $
b1110 [
b111 y
b111 j
b111 r
b111 ""
b110000 {
b111 #"
b111 z
1#
1(
#480000
0#
0(
#485000
b110001 {
b1000 y
b1000 j
b1000 r
b1000 ""
b1 _
b10 :
b10 M
b10 a
b11 T
b100 I
b100 =
b100 A
b100 G
b1 W
b110001 $
b1000 #"
b1000 z
1#
1(
#490000
0#
0(
#495000
b110010 $
b0 W
b10 _
b11 :
b1001 y
b1001 j
b1001 r
b1001 ""
b110010 {
b10 h
b10 1
b10 e
b10 F
b10 E
b10 <
b1001 #"
b1001 z
1#
1(
#500000
0#
0(
#505000
b110011 {
b1010 y
b1010 j
b1010 r
b1010 ""
b10 P
b10 i
b10 s
b10 w
b11 _
b100 :
b110011 $
b1010 #"
b1010 z
1#
1(
#510000
0#
0(
#515000
b110100 $
b0 _
b1 :
b1011 [
b1011 y
b1011 j
b1011 r
b1011 ""
b110100 {
b1011 #"
b1011 z
1#
1(
#520000
0#
0(
#525000
b110101 {
b1100 y
b1100 j
b1100 r
b1100 ""
b1110 [
b110101 $
b1100 #"
b1100 z
1#
1(
#530000
0#
0(
#535000
b110110 $
b1 W
b100 T
b101 I
b101 =
b101 A
b101 G
b11 M
b11 a
b1 _
b10 :
b1101 y
b1101 j
b1101 r
b1101 ""
b110110 {
b1101 #"
b1101 z
1#
1(
#540000
0#
0(
#545000
b11 h
b11 1
b11 e
b11 F
b11 E
b11 <
b110111 {
b1110 y
b1110 j
b1110 r
b1110 ""
b10 _
b11 :
b0 W
b110111 $
b1110 #"
b1110 z
1#
1(
#550000
0#
0(
#555000
b111000 $
b11 _
b100 :
b11 P
b11 i
b11 s
b11 w
b1111 y
b1111 j
b1111 r
b1111 ""
b111000 {
b1111 #"
b1111 z
1#
1(
#560000
0#
0(
#565000
b111001 {
b10000 y
b10000 j
b10000 r
b10000 ""
b1011 [
b0 _
b1 :
b111001 $
b10000 #"
b10000 z
1#
1(
#570000
0#
0(
#575000
b111010 $
b1110 [
b10001 y
b10001 j
b10001 r
b10001 ""
b111010 {
b10001 #"
b10001 z
1#
1(
#580000
0#
0(
#585000
b111011 {
b10010 y
b10010 j
b10010 r
b10010 ""
b1 _
b10 :
b100 M
b100 a
b101 T
b110 I
b110 =
b110 A
b110 G
b1 W
b111011 $
b10010 #"
b10010 z
1#
1(
#590000
0#
0(
#595000
b111100 $
b0 W
b10 _
b11 :
b10011 y
b10011 j
b10011 r
b10011 ""
b111100 {
b100 h
b100 1
b100 e
b100 F
b100 E
b100 <
b10011 #"
b10011 z
1#
1(
#600000
0#
0(
#605000
b111101 {
b10100 y
b10100 j
b10100 r
b10100 ""
b100 P
b100 i
b100 s
b100 w
b11 _
b100 :
b111101 $
b10100 #"
b10100 z
1#
1(
#610000
0#
0(
#615000
b111110 $
b0 _
b1 :
b1011 [
b10101 y
b10101 j
b10101 r
b10101 ""
b111110 {
b10101 #"
b10101 z
1#
1(
#620000
0#
0(
#625000
b111111 {
b10110 y
b10110 j
b10110 r
b10110 ""
b1110 [
b111111 $
b10110 #"
b10110 z
1#
1(
#630000
0#
0(
#635000
b1000000 $
b1 W
b110 T
b111 I
b111 =
b111 A
b111 G
b101 M
b101 a
b1 _
b10 :
b10111 y
b10111 j
b10111 r
b10111 ""
b1000000 {
b10111 #"
b10111 z
1#
1(
#640000
0#
0(
#645000
b101 h
b101 1
b101 e
b101 F
b101 E
b101 <
b1000001 {
b11000 y
b11000 j
b11000 r
b11000 ""
b10 _
b11 :
b0 W
b1000001 $
b11000 #"
b11000 z
1#
1(
#650000
0#
0(
#655000
b1000010 $
b11 _
b100 :
b101 P
b101 i
b101 s
b101 w
b11001 y
b11001 j
b11001 r
b11001 ""
b1000010 {
b11001 #"
b11001 z
1#
1(
#660000
0#
0(
#665000
b1000011 {
b11010 y
b11010 j
b11010 r
b11010 ""
b1011 [
b0 _
b1 :
b1000011 $
b11010 #"
b11010 z
1#
1(
#670000
0#
0(
#675000
b1000100 $
b1110 [
b11011 y
b11011 j
b11011 r
b11011 ""
b1000100 {
b11011 #"
b11011 z
1#
1(
#680000
0#
0(
#685000
b1000101 {
b11100 y
b11100 j
b11100 r
b11100 ""
b1 _
b10 :
b110 M
b110 a
b111 T
b1000 I
b1000 =
b1000 A
b1000 G
b1 W
b1000101 $
b11100 #"
b11100 z
1#
1(
#690000
0#
0(
#695000
b1000110 $
b0 W
b10 _
b11 :
b11101 y
b11101 j
b11101 r
b11101 ""
b1000110 {
b110 h
b110 1
b110 e
b110 F
b110 E
b110 <
b11101 #"
b11101 z
1#
1(
#700000
0#
0(
#705000
b1000111 {
b11110 y
b11110 j
b11110 r
b11110 ""
b110 P
b110 i
b110 s
b110 w
b11 _
b100 :
b1000111 $
b11110 #"
b11110 z
1#
1(
#710000
0#
0(
#715000
b1001000 $
b0 _
b1 :
b1011 [
b11111 y
b11111 j
b11111 r
b11111 ""
b1001000 {
b11111 #"
b11111 z
1#
1(
#720000
0#
0(
#725000
b1001001 {
b100000 y
b100000 j
b100000 r
b100000 ""
b1110 [
b1001001 $
b100000 #"
b100000 z
1#
1(
#730000
0#
0(
#735000
b1001010 $
b1 W
b1000 T
b1001 I
b1001 =
b1001 A
b1001 G
b111 M
b111 a
b1 _
b10 :
b100001 y
b100001 j
b100001 r
b100001 ""
b1001010 {
b100001 #"
b100001 z
1#
1(
#740000
0#
0(
#745000
b111 h
b111 1
b111 e
b111 F
b111 E
b111 <
b1001011 {
b100010 y
b100010 j
b100010 r
b100010 ""
b10 _
b11 :
b0 W
b1001011 $
b100010 #"
b100010 z
1#
1(
#750000
0#
0(
#755000
b1001100 $
b11 _
b100 :
b111 P
b111 i
b111 s
b111 w
b100011 y
b100011 j
b100011 r
b100011 ""
b1001100 {
b100011 #"
b100011 z
1#
1(
#760000
0#
0(
#765000
b1001101 {
b100100 y
b100100 j
b100100 r
b100100 ""
b1011 [
b0 _
b1 :
b1001101 $
b100100 #"
b100100 z
1#
1(
#770000
0#
0(
#775000
b1001110 $
b1110 [
b100101 y
b100101 j
b100101 r
b100101 ""
b1001110 {
b100101 #"
b100101 z
1#
1(
#780000
0#
0(
#785000
b1001111 {
b100110 y
b100110 j
b100110 r
b100110 ""
b1 _
b10 :
b1000 M
b1000 a
b1001 T
b1010 I
b1010 =
b1010 A
b1010 G
b1 W
b1001111 $
b100110 #"
b100110 z
1#
1(
#790000
0#
0(
#795000
b1010000 $
b0 W
b10 _
b11 :
b100111 y
b100111 j
b100111 r
b100111 ""
b1010000 {
b1000 h
b1000 1
b1000 e
b1000 F
b1000 E
b1000 <
b100111 #"
b100111 z
1#
1(
#800000
0#
0(
#805000
b1010001 {
b101000 y
b101000 j
b101000 r
b101000 ""
b1000 P
b1000 i
b1000 s
b1000 w
b11 _
b100 :
b1010001 $
b101000 #"
b101000 z
1#
1(
#810000
0#
0(
#815000
b1010010 $
b0 _
b1 :
b1011 [
b101001 y
b101001 j
b101001 r
b101001 ""
b1010010 {
b101001 #"
b101001 z
1#
1(
#820000
0#
0(
#825000
b1010011 {
b101010 y
b101010 j
b101010 r
b101010 ""
b1110 [
b1010011 $
b101010 #"
b101010 z
1#
1(
#830000
0#
0(
#835000
b1010100 $
b1 W
b1010 T
0;
b1011 I
0J
b1011 =
0>
b1011 A
0B
b1011 G
b1001 M
b1001 a
b1 _
b10 :
b101011 y
b101011 j
b101011 r
b101011 ""
b1010100 {
b101011 #"
b101011 z
1#
1(
#840000
0#
0(
#845000
b1001 h
b1001 1
b1001 e
b1001 F
b1001 E
b1001 <
b1010101 {
b101100 y
b101100 j
b101100 r
b101100 ""
b10 _
b11 :
b0 W
b1010101 $
b101100 #"
b101100 z
1#
1(
#850000
0#
0(
#855000
b1010110 $
b11 _
b100 :
b1001 P
b1001 i
b1001 s
b1001 w
b101101 y
b101101 j
b101101 r
b101101 ""
b1010110 {
b101101 #"
b101101 z
1#
1(
#860000
0#
0(
#865000
b1010111 {
b101110 y
b101110 j
b101110 r
b101110 ""
b1011 [
b0 _
b1 :
b1010111 $
b101110 #"
b101110 z
1#
1(
#870000
0#
0(
#875000
b1011000 $
b10000 [
b101111 y
b101111 j
b101111 r
b101111 ""
b1011000 {
b101111 #"
b101111 z
1#
1(
#880000
0#
0(
#885000
b1011001 {
b110000 y
b110000 j
b110000 r
b110000 ""
b10001 [
b0 T
1;
b1 I
1J
b1 =
1>
b1 A
1B
b1 G
b1011001 $
b110000 #"
b110000 z
1#
1(
#890000
0#
0(
#895000
b1011010 $
b10100 [
b110001 y
b110001 j
b110001 r
b110001 ""
b1011010 {
b110001 #"
b110001 z
1#
1(
#900000
0#
0(
#905000
0v
1u
b1011011 {
b110010 y
b110010 j
b110010 r
b110010 ""
b0 P
b0 i
b0 s
b0 w
b0 S
b0 q
b1 R
b1 p
b1 _
b10 :
b1 V
b1011011 $
b110010 #"
b110010 z
1#
1(
#910000
0#
0(
#915000
b1011100 $
b0 V
b1 T
b10 I
b10 =
b10 A
b10 G
1O
1f
b0 N
b0 c
b0 M
b0 a
b0 _
b1 :
b10001 [
b110001 y
b110001 j
b110001 r
b1 '"
b1011100 {
b1 ("
b110001 z
1#
1(
#920000
0#
0(
#925000
b0 h
b0 1
b0 e
b0 F
b0 E
b0 <
b1011101 {
b110000 y
b110000 j
b110000 r
b10 '"
b10100 [
b1011101 $
b10 ("
b110000 z
1#
1(
#930000
0#
0(
#935000
b1011110 $
b1 V
b1 _
b10 :
b101111 y
b101111 j
b101111 r
b11 '"
b1011110 {
b11 ("
b101111 z
1#
1(
#940000
0#
0(
#945000
b1011111 {
b101110 y
b101110 j
b101110 r
b100 '"
b10001 [
b0 _
b1 :
b1 M
b1 a
b10 T
b11 I
b11 =
b11 A
b11 G
b0 V
b1011111 $
b100 ("
b101110 z
1#
1(
#950000
0#
0(
#955000
b1100000 $
b10100 [
b101101 y
b101101 j
b101101 r
b101 '"
b1100000 {
b1 h
b1 1
b1 e
b1 F
b1 E
b1 <
b101 ("
b1 3
b1 n
b1 t
b1 x
b1 @
b1 L
b101101 z
1#
1(
#960000
0#
0(
#965000
b0 h
b0 1
b0 e
b0 F
b0 E
b0 <
b1100001 {
b101100 y
b101100 j
b101100 r
b110 '"
b1 _
b10 :
b1 V
b1100001 $
b110 ("
b101100 z
1#
1(
#970000
0#
0(
#975000
b1100010 $
b0 V
b11 T
b100 I
b100 =
b100 A
b100 G
b1 N
b1 c
b10 M
b10 a
b0 _
b1 :
b10001 [
b101011 y
b101011 j
b101011 r
b111 '"
b1100010 {
b111 ("
b101011 z
1#
1(
#980000
0#
0(
#985000
b10 h
b10 1
b10 e
b10 F
b10 E
b10 <
b1100011 {
b101010 y
b101010 j
b101010 r
b1000 '"
b10100 [
b1100011 $
b1000 ("
b101010 z
1#
1(
#990000
0#
0(
#995000
b1100100 $
b1 V
b1 _
b10 :
b101001 y
b101001 j
b101001 r
b1001 '"
b1100100 {
b1 h
b1 1
b1 e
b1 F
b1 E
b1 <
b1001 ("
b101001 z
1#
1(
#1000000
0#
0(
#1005000
b1100101 {
b101000 y
b101000 j
b101000 r
b1010 '"
b10001 [
b0 _
b1 :
b11 M
b11 a
b100 T
b101 I
b101 =
b101 A
b101 G
b0 V
b1100101 $
b1010 ("
b10 3
b10 n
b10 t
b10 x
b10 @
b10 L
b101000 z
1#
1(
#1010000
0#
0(
#1015000
b1100110 $
b10100 [
b100111 y
b100111 j
b100111 r
b1011 '"
b1100110 {
b11 h
b11 1
b11 e
b11 F
b11 E
b11 <
b1011 ("
b100111 z
1#
1(
#1020000
0#
0(
#1025000
b1 h
b1 1
b1 e
b1 F
b1 E
b1 <
b1100111 {
b100110 y
b100110 j
b100110 r
b1100 '"
b1 _
b10 :
b1 V
b1100111 $
b1100 ("
b100110 z
1#
1(
#1030000
0#
0(
#1035000
b1101000 $
b0 V
b101 T
b110 I
b110 =
b110 A
b110 G
b10 N
b10 c
b100 M
b100 a
b0 _
b1 :
b10001 [
b100101 y
b100101 j
b100101 r
b1101 '"
b1101000 {
b1101 ("
b100101 z
1#
1(
#1040000
0#
0(
#1045000
b100 h
b100 1
b100 e
b100 F
b100 E
b100 <
b1101001 {
b100100 y
b100100 j
b100100 r
b1110 '"
b10100 [
b1101001 $
b1110 ("
b100100 z
1#
1(
#1050000
0#
0(
#1055000
b1101010 $
b1 V
b1 _
b10 :
b100011 y
b100011 j
b100011 r
b1111 '"
b1101010 {
b10 h
b10 1
b10 e
b10 F
b10 E
b10 <
b1111 ("
b11 3
b11 n
b11 t
b11 x
b11 @
b11 L
b100011 z
1#
1(
#1060000
0#
0(
#1065000
b1101011 {
b100010 y
b100010 j
b100010 r
b10000 '"
b10001 [
b0 _
b1 :
b101 M
b101 a
b11 N
b11 c
b110 T
b111 I
b111 =
b111 A
b111 G
b0 V
b1101011 $
b10000 ("
b100010 z
1#
1(
#1070000
0#
0(
#1075000
b1101100 $
b10100 [
b100001 y
b100001 j
b100001 r
b10001 '"
b1101100 {
b101 h
b101 1
b101 e
b101 F
b101 E
b101 <
b10001 ("
b100001 z
1#
1(
#1080000
0#
0(
#1085000
b11 h
b11 1
b11 e
b11 F
b11 E
b11 <
b1101101 {
b100000 y
b100000 j
b100000 r
b10010 '"
b1 _
b10 :
b1 V
b1101101 $
b10010 ("
b100000 z
1#
1(
#1090000
0#
0(
#1095000
b1101110 $
b0 V
b111 T
b1000 I
b1000 =
b1000 A
b1000 G
b110 M
b110 a
b0 _
b1 :
b10001 [
b11111 y
b11111 j
b11111 r
b10011 '"
b1101110 {
b10011 ("
b11111 z
1#
1(
#1100000
0#
0(
#1105000
b110 h
b110 1
b110 e
b110 F
b110 E
b110 <
b1101111 {
b11110 y
b11110 j
b11110 r
b10100 '"
b10100 [
b1101111 $
b10100 ("
b100 3
b100 n
b100 t
b100 x
b100 @
b100 L
b11110 z
1#
1(
#1110000
0#
0(
#1115000
b1110000 $
b1 V
b1 _
b10 :
b11101 y
b11101 j
b11101 r
b10101 '"
b1110000 {
b11 h
b11 1
b11 e
b11 F
b11 E
b11 <
b10101 ("
b11101 z
1#
1(
#1120000
0#
0(
#1125000
b1110001 {
b11100 y
b11100 j
b11100 r
b10110 '"
b10001 [
b0 _
b1 :
b111 M
b111 a
b100 N
b100 c
b1000 T
b1001 I
b1001 =
b1001 A
b1001 G
b0 V
b1110001 $
b10110 ("
b11100 z
1#
1(
#1130000
0#
0(
#1135000
b1110010 $
b10100 [
b11011 y
b11011 j
b11011 r
b10111 '"
b1110010 {
b111 h
b111 1
b111 e
b111 F
b111 E
b111 <
b10111 ("
b11011 z
1#
1(
#1140000
0#
0(
#1145000
b100 h
b100 1
b100 e
b100 F
b100 E
b100 <
b1110011 {
b11010 y
b11010 j
b11010 r
b11000 '"
b1 _
b10 :
b1 V
b1110011 $
b11000 ("
b11010 z
1#
1(
#1150000
0#
0(
#1155000
b1110100 $
b0 V
b1001 T
b1010 I
b1010 =
b1010 A
b1010 G
b101 N
b101 c
b1000 M
b1000 a
b0 _
b1 :
b10001 [
b11001 y
b11001 j
b11001 r
b11001 '"
b1110100 {
b11001 ("
b101 3
b101 n
b101 t
b101 x
b101 @
b101 L
b11001 z
1#
1(
#1160000
0#
0(
#1165000
b1000 h
b1000 1
b1000 e
b1000 F
b1000 E
b1000 <
b1110101 {
b11000 y
b11000 j
b11000 r
b11010 '"
b10100 [
b1110101 $
b11010 ("
b11000 z
1#
1(
#1170000
0#
0(
#1175000
b1110110 $
b1 V
b1 _
b10 :
b10111 y
b10111 j
b10111 r
b11011 '"
b1110110 {
b101 h
b101 1
b101 e
b101 F
b101 E
b101 <
b11011 ("
b10111 z
1#
1(
#1180000
0#
0(
#1185000
b1110111 {
b10110 y
b10110 j
b10110 r
b11100 '"
b10001 [
b0 _
b1 :
b1001 M
b1001 a
b1010 T
0;
b1011 I
0J
b1011 =
0>
b1011 A
0B
b1011 G
b0 V
b1110111 $
b11100 ("
b10110 z
1#
1(
#1190000
0#
0(
#1195000
b1111000 $
b10110 [
b10101 y
b10101 j
b10101 r
b11101 '"
b1111000 {
b1001 h
b1001 1
b1001 e
b1001 F
b1001 E
b1001 <
b11101 ("
b10101 z
1#
1(
#1200000
0#
0(
#1205000
b101 h
b101 1
b101 e
b101 F
b101 E
b101 <
b1111001 {
b10100 y
b10100 j
b10100 r
b11110 '"
b10111 [
b0 T
1;
b1 I
1J
b1 =
1>
b1 A
1B
b1 G
b1111001 $
b11110 ("
b110 3
b110 n
b110 t
b110 x
b110 @
b110 L
b10100 z
1#
1(
#1210000
0#
0(
